<?xml version="1.0" encoding="utf-8"?>
<!-- Generator: Adobe Illustrator 22.1.0, SVG Export Plug-In . SVG Version: 6.00 Build 0)  -->
<svg version="1.1" id="OBJECTS" xmlns="http://www.w3.org/2000/svg" xmlns:xlink="http://www.w3.org/1999/xlink" x="0px" y="0px"
	 viewBox="0 0 327.6 283.9" style="enable-background:new 0 0 327.6 283.9;" xml:space="preserve">
<style type="text/css">
	.st0{opacity:0.1;}
	.st1{opacity:0.5;}
	.st2{fill:#283632;}
	.st3{fill:#ABC9D3;}
	.st4{fill:#505050;}
	.st5{opacity:0.7;fill:#E3EFF2;}
	.st6{fill:#184064;}
	.st7{fill:#E3EFF2;}
	.st8{fill:#CECECE;}
	.st9{fill:#7D7C7C;}
	.st10{fill:#19191B;}
	.st11{fill:#EBF4F8;}
	.st12{opacity:0.8;}
	.st13{opacity:0.63;}
	.st14{fill:none;}
	.st15{fill:none;stroke:#004769;stroke-width:0.5;stroke-miterlimit:10;}
	.st16{fill:none;stroke:#545454;stroke-width:0.75;stroke-miterlimit:10;}
	.st17{fill:none;stroke:#545454;stroke-miterlimit:10;}
	.st18{opacity:0.3;fill:#545454;}
	.st19{clip-path:url(#SVGID_6_);}
	.st20{clip-path:url(#SVGID_8_);fill:none;stroke:#003E65;stroke-width:0.75;stroke-miterlimit:10;}
	.st21{clip-path:url(#SVGID_8_);fill:#F2B07D;}
	.st22{clip-path:url(#SVGID_8_);fill:#D1D1D1;}
	.st23{clip-path:url(#SVGID_8_);fill:none;stroke:#798489;stroke-width:0.75;stroke-miterlimit:10;}
	.st24{clip-path:url(#SVGID_8_);fill:#B77858;}
	.st25{clip-path:url(#SVGID_8_);fill:none;stroke:#8C612D;stroke-width:0.75;stroke-miterlimit:10;}
	.st26{clip-path:url(#SVGID_8_);fill:#028EBF;}
	.st27{clip-path:url(#SVGID_8_);}
	.st28{clip-path:url(#SVGID_8_);fill:#261107;}
	.st29{clip-path:url(#SVGID_8_);fill:#FFFFFF;}
	.st30{clip-path:url(#SVGID_8_);fill:#F99C6E;}
	.st31{fill:#592612;}
	.st32{fill:none;stroke:#3F190C;stroke-width:0.5;stroke-miterlimit:10;}
	.st33{clip-path:url(#SVGID_14_);}
	.st34{clip-path:url(#SVGID_16_);fill:none;stroke:#003E65;stroke-width:0.75;stroke-miterlimit:10;}
	.st35{clip-path:url(#SVGID_16_);fill:#F2B07D;}
	.st36{clip-path:url(#SVGID_16_);fill:#D1D1D1;}
	.st37{clip-path:url(#SVGID_16_);fill:none;stroke:#798489;stroke-width:0.75;stroke-miterlimit:10;}
	.st38{clip-path:url(#SVGID_16_);fill:#B77858;}
	.st39{clip-path:url(#SVGID_16_);fill:none;stroke:#8C612D;stroke-width:0.75;stroke-miterlimit:10;}
	.st40{clip-path:url(#SVGID_16_);fill:#003589;}
	.st41{clip-path:url(#SVGID_16_);}
	.st42{clip-path:url(#SVGID_16_);fill:#261107;}
	.st43{clip-path:url(#SVGID_16_);fill:#FFFFFF;}
	.st44{clip-path:url(#SVGID_16_);fill:#F99C6E;}
	.st45{clip-path:url(#SVGID_22_);}
	.st46{clip-path:url(#SVGID_24_);fill:none;stroke:#003E65;stroke-width:0.75;stroke-miterlimit:10;}
	.st47{clip-path:url(#SVGID_24_);fill:#F2B07D;}
	.st48{clip-path:url(#SVGID_24_);fill:#D1D1D1;}
	.st49{clip-path:url(#SVGID_24_);fill:none;stroke:#798489;stroke-width:0.75;stroke-miterlimit:10;}
	.st50{clip-path:url(#SVGID_24_);fill:#B77858;}
	.st51{clip-path:url(#SVGID_24_);fill:none;stroke:#8C612D;stroke-width:0.75;stroke-miterlimit:10;}
	.st52{clip-path:url(#SVGID_24_);fill:#009232;}
	.st53{clip-path:url(#SVGID_24_);}
	.st54{clip-path:url(#SVGID_24_);fill:#261107;}
	.st55{clip-path:url(#SVGID_24_);fill:#FFFFFF;}
	.st56{clip-path:url(#SVGID_24_);fill:#F99C6E;}
	.st57{clip-path:url(#SVGID_30_);}
	.st58{clip-path:url(#SVGID_32_);fill:none;stroke:#003E65;stroke-width:0.75;stroke-miterlimit:10;}
	.st59{clip-path:url(#SVGID_32_);fill:#F2B07D;}
	.st60{clip-path:url(#SVGID_32_);fill:#D1D1D1;}
	.st61{clip-path:url(#SVGID_32_);fill:none;stroke:#798489;stroke-width:0.75;stroke-miterlimit:10;}
	.st62{clip-path:url(#SVGID_32_);fill:#B77858;}
	.st63{clip-path:url(#SVGID_32_);fill:none;stroke:#8C612D;stroke-width:0.75;stroke-miterlimit:10;}
	.st64{clip-path:url(#SVGID_32_);fill:#A01987;}
	.st65{clip-path:url(#SVGID_32_);}
	.st66{clip-path:url(#SVGID_32_);fill:#261107;}
	.st67{clip-path:url(#SVGID_32_);fill:#FFFFFF;}
	.st68{clip-path:url(#SVGID_32_);fill:#F99C6E;}
	.st69{clip-path:url(#SVGID_38_);}
	.st70{clip-path:url(#SVGID_40_);fill:none;stroke:#003E65;stroke-width:0.75;stroke-miterlimit:10;}
	.st71{clip-path:url(#SVGID_40_);fill:#F2B07D;}
	.st72{clip-path:url(#SVGID_40_);fill:#D1D1D1;}
	.st73{clip-path:url(#SVGID_40_);fill:none;stroke:#798489;stroke-width:0.75;stroke-miterlimit:10;}
	.st74{clip-path:url(#SVGID_40_);fill:#B77858;}
	.st75{clip-path:url(#SVGID_40_);fill:none;stroke:#8C612D;stroke-width:0.75;stroke-miterlimit:10;}
	.st76{clip-path:url(#SVGID_40_);fill:#68117A;}
	.st77{clip-path:url(#SVGID_40_);}
	.st78{clip-path:url(#SVGID_40_);fill:#261107;}
	.st79{clip-path:url(#SVGID_40_);fill:#FFFFFF;}
	.st80{clip-path:url(#SVGID_40_);fill:#F99C6E;}
	.st81{clip-path:url(#SVGID_46_);}
	.st82{clip-path:url(#SVGID_48_);fill:none;stroke:#003E65;stroke-width:0.75;stroke-miterlimit:10;}
	.st83{clip-path:url(#SVGID_48_);fill:#F2B07D;}
	.st84{clip-path:url(#SVGID_48_);fill:#D1D1D1;}
	.st85{clip-path:url(#SVGID_48_);fill:none;stroke:#798489;stroke-width:0.75;stroke-miterlimit:10;}
	.st86{clip-path:url(#SVGID_48_);fill:#B77858;}
	.st87{clip-path:url(#SVGID_48_);fill:none;stroke:#8C612D;stroke-width:0.75;stroke-miterlimit:10;}
	.st88{clip-path:url(#SVGID_48_);fill:#0051A5;}
	.st89{clip-path:url(#SVGID_48_);}
	.st90{clip-path:url(#SVGID_48_);fill:#261107;}
	.st91{clip-path:url(#SVGID_48_);fill:#FFFFFF;}
	.st92{clip-path:url(#SVGID_48_);fill:#F99C6E;}
	.st93{clip-path:url(#SVGID_54_);}
	.st94{clip-path:url(#SVGID_56_);fill:none;stroke:#003E65;stroke-width:0.75;stroke-miterlimit:10;}
	.st95{clip-path:url(#SVGID_56_);fill:#F2B07D;}
	.st96{clip-path:url(#SVGID_56_);fill:#D1D1D1;}
	.st97{clip-path:url(#SVGID_56_);fill:none;stroke:#798489;stroke-width:0.75;stroke-miterlimit:10;}
	.st98{clip-path:url(#SVGID_56_);fill:#B77858;}
	.st99{clip-path:url(#SVGID_56_);fill:none;stroke:#8C612D;stroke-width:0.75;stroke-miterlimit:10;}
	.st100{clip-path:url(#SVGID_56_);fill:#002266;}
	.st101{clip-path:url(#SVGID_56_);}
	.st102{clip-path:url(#SVGID_56_);fill:#261107;}
	.st103{clip-path:url(#SVGID_56_);fill:#FFFFFF;}
	.st104{clip-path:url(#SVGID_56_);fill:#F99C6E;}
	.st105{clip-path:url(#SVGID_62_);}
	.st106{clip-path:url(#SVGID_64_);fill:none;stroke:#003E65;stroke-width:0.75;stroke-miterlimit:10;}
	.st107{clip-path:url(#SVGID_64_);fill:#F2B07D;}
	.st108{clip-path:url(#SVGID_64_);fill:#D1D1D1;}
	.st109{clip-path:url(#SVGID_64_);fill:none;stroke:#798489;stroke-width:0.75;stroke-miterlimit:10;}
	.st110{clip-path:url(#SVGID_64_);fill:#B77858;}
	.st111{clip-path:url(#SVGID_64_);fill:none;stroke:#8C612D;stroke-width:0.75;stroke-miterlimit:10;}
	.st112{clip-path:url(#SVGID_64_);fill:#3996BA;}
	.st113{clip-path:url(#SVGID_64_);}
	.st114{clip-path:url(#SVGID_64_);fill:#261107;}
	.st115{clip-path:url(#SVGID_64_);fill:#FFFFFF;}
	.st116{clip-path:url(#SVGID_64_);fill:#F99C6E;}
	.st117{clip-path:url(#SVGID_70_);}
	.st118{clip-path:url(#SVGID_72_);fill:none;stroke:#003E65;stroke-width:0.75;stroke-miterlimit:10;}
	.st119{clip-path:url(#SVGID_72_);fill:#F2B07D;}
	.st120{clip-path:url(#SVGID_72_);fill:#D1D1D1;}
	.st121{clip-path:url(#SVGID_72_);fill:none;stroke:#798489;stroke-width:0.75;stroke-miterlimit:10;}
	.st122{clip-path:url(#SVGID_72_);fill:#B77858;}
	.st123{clip-path:url(#SVGID_72_);fill:none;stroke:#8C612D;stroke-width:0.75;stroke-miterlimit:10;}
	.st124{clip-path:url(#SVGID_72_);fill:#FF0015;}
	.st125{clip-path:url(#SVGID_72_);}
	.st126{clip-path:url(#SVGID_72_);fill:#261107;}
	.st127{clip-path:url(#SVGID_72_);fill:#FFFFFF;}
	.st128{clip-path:url(#SVGID_72_);fill:#F99C6E;}
	.st129{clip-path:url(#SVGID_78_);}
	.st130{clip-path:url(#SVGID_80_);fill:none;stroke:#003E65;stroke-width:0.75;stroke-miterlimit:10;}
	.st131{clip-path:url(#SVGID_80_);fill:#F2B07D;}
	.st132{clip-path:url(#SVGID_80_);fill:#D1D1D1;}
	.st133{clip-path:url(#SVGID_80_);fill:none;stroke:#798489;stroke-width:0.75;stroke-miterlimit:10;}
	.st134{clip-path:url(#SVGID_80_);fill:#B77858;}
	.st135{clip-path:url(#SVGID_80_);fill:none;stroke:#8C612D;stroke-width:0.75;stroke-miterlimit:10;}
	.st136{clip-path:url(#SVGID_80_);fill:#00346A;}
	.st137{clip-path:url(#SVGID_80_);}
	.st138{clip-path:url(#SVGID_80_);fill:#261107;}
	.st139{clip-path:url(#SVGID_80_);fill:#FFFFFF;}
	.st140{clip-path:url(#SVGID_80_);fill:#F99C6E;}
	.st141{clip-path:url(#SVGID_86_);}
	.st142{clip-path:url(#SVGID_88_);fill:none;stroke:#003E65;stroke-width:0.75;stroke-miterlimit:10;}
	.st143{clip-path:url(#SVGID_88_);fill:#F2B07D;}
	.st144{clip-path:url(#SVGID_88_);fill:#D1D1D1;}
	.st145{clip-path:url(#SVGID_88_);fill:none;stroke:#798489;stroke-width:0.75;stroke-miterlimit:10;}
	.st146{clip-path:url(#SVGID_88_);fill:#B77858;}
	.st147{clip-path:url(#SVGID_88_);fill:none;stroke:#8C612D;stroke-width:0.75;stroke-miterlimit:10;}
	.st148{clip-path:url(#SVGID_88_);fill:#F6141C;}
	.st149{clip-path:url(#SVGID_88_);}
	.st150{clip-path:url(#SVGID_88_);fill:#261107;}
	.st151{clip-path:url(#SVGID_88_);fill:#FFFFFF;}
	.st152{clip-path:url(#SVGID_88_);fill:#F99C6E;}
	.st153{clip-path:url(#SVGID_94_);}
	.st154{clip-path:url(#SVGID_96_);fill:none;stroke:#003E65;stroke-width:0.75;stroke-miterlimit:10;}
	.st155{clip-path:url(#SVGID_96_);fill:#F2B07D;}
	.st156{clip-path:url(#SVGID_96_);fill:#D1D1D1;}
	.st157{clip-path:url(#SVGID_96_);fill:none;stroke:#798489;stroke-width:0.75;stroke-miterlimit:10;}
	.st158{clip-path:url(#SVGID_96_);fill:#B77858;}
	.st159{clip-path:url(#SVGID_96_);fill:none;stroke:#8C612D;stroke-width:0.75;stroke-miterlimit:10;}
	.st160{clip-path:url(#SVGID_96_);fill:#FF3793;}
	.st161{clip-path:url(#SVGID_96_);}
	.st162{clip-path:url(#SVGID_96_);fill:#261107;}
	.st163{clip-path:url(#SVGID_96_);fill:#FFFFFF;}
	.st164{clip-path:url(#SVGID_96_);fill:#F99C6E;}
	.st165{clip-path:url(#SVGID_102_);}
	.st166{clip-path:url(#SVGID_104_);fill:none;stroke:#003E65;stroke-width:0.75;stroke-miterlimit:10;}
	.st167{clip-path:url(#SVGID_104_);fill:#F2B07D;}
	.st168{clip-path:url(#SVGID_104_);fill:#D1D1D1;}
	.st169{clip-path:url(#SVGID_104_);fill:none;stroke:#798489;stroke-width:0.75;stroke-miterlimit:10;}
	.st170{clip-path:url(#SVGID_104_);fill:#B77858;}
	.st171{clip-path:url(#SVGID_104_);fill:none;stroke:#8C612D;stroke-width:0.75;stroke-miterlimit:10;}
	.st172{clip-path:url(#SVGID_104_);fill:#FF131C;}
	.st173{clip-path:url(#SVGID_104_);}
	.st174{clip-path:url(#SVGID_104_);fill:#261107;}
	.st175{clip-path:url(#SVGID_104_);fill:#FFFFFF;}
	.st176{clip-path:url(#SVGID_104_);fill:#F99C6E;}
	.st177{clip-path:url(#SVGID_110_);}
	.st178{clip-path:url(#SVGID_112_);fill:none;stroke:#003E65;stroke-width:0.75;stroke-miterlimit:10;}
	.st179{clip-path:url(#SVGID_112_);fill:#F2B07D;}
	.st180{clip-path:url(#SVGID_112_);fill:#D1D1D1;}
	.st181{clip-path:url(#SVGID_112_);fill:none;stroke:#798489;stroke-width:0.75;stroke-miterlimit:10;}
	.st182{clip-path:url(#SVGID_112_);fill:#B77858;}
	.st183{clip-path:url(#SVGID_112_);fill:none;stroke:#8C612D;stroke-width:0.75;stroke-miterlimit:10;}
	.st184{clip-path:url(#SVGID_112_);fill:#003884;}
	.st185{clip-path:url(#SVGID_112_);}
	.st186{clip-path:url(#SVGID_112_);fill:#261107;}
	.st187{clip-path:url(#SVGID_112_);fill:#FFFFFF;}
	.st188{clip-path:url(#SVGID_112_);fill:#F99C6E;}
	.st189{clip-path:url(#SVGID_118_);}
	.st190{clip-path:url(#SVGID_120_);fill:none;stroke:#003E65;stroke-width:0.75;stroke-miterlimit:10;}
	.st191{clip-path:url(#SVGID_120_);fill:#F2B07D;}
	.st192{clip-path:url(#SVGID_120_);fill:#D1D1D1;}
	.st193{clip-path:url(#SVGID_120_);fill:none;stroke:#798489;stroke-width:0.75;stroke-miterlimit:10;}
	.st194{clip-path:url(#SVGID_120_);fill:#B77858;}
	.st195{clip-path:url(#SVGID_120_);fill:none;stroke:#8C612D;stroke-width:0.75;stroke-miterlimit:10;}
	.st196{clip-path:url(#SVGID_120_);fill:#004B9E;}
	.st197{clip-path:url(#SVGID_120_);}
	.st198{clip-path:url(#SVGID_120_);fill:#261107;}
	.st199{clip-path:url(#SVGID_120_);fill:#FFFFFF;}
	.st200{clip-path:url(#SVGID_120_);fill:#F99C6E;}
	.st201{clip-path:url(#SVGID_126_);}
	.st202{clip-path:url(#SVGID_128_);fill:none;stroke:#003E65;stroke-width:0.75;stroke-miterlimit:10;}
	.st203{clip-path:url(#SVGID_128_);fill:#F2B07D;}
	.st204{clip-path:url(#SVGID_128_);fill:#D1D1D1;}
	.st205{clip-path:url(#SVGID_128_);fill:none;stroke:#798489;stroke-width:0.75;stroke-miterlimit:10;}
	.st206{clip-path:url(#SVGID_128_);fill:#B77858;}
	.st207{clip-path:url(#SVGID_128_);fill:none;stroke:#8C612D;stroke-width:0.75;stroke-miterlimit:10;}
	.st208{clip-path:url(#SVGID_128_);fill:#00AFCC;}
	.st209{clip-path:url(#SVGID_128_);}
	.st210{clip-path:url(#SVGID_128_);fill:#261107;}
	.st211{clip-path:url(#SVGID_128_);fill:#FFFFFF;}
	.st212{clip-path:url(#SVGID_128_);fill:#F99C6E;}
	.st213{clip-path:url(#SVGID_134_);}
	.st214{clip-path:url(#SVGID_136_);fill:none;stroke:#003E65;stroke-width:0.75;stroke-miterlimit:10;}
	.st215{clip-path:url(#SVGID_136_);fill:#F2B07D;}
	.st216{clip-path:url(#SVGID_136_);fill:#D1D1D1;}
	.st217{clip-path:url(#SVGID_136_);fill:none;stroke:#798489;stroke-width:0.75;stroke-miterlimit:10;}
	.st218{clip-path:url(#SVGID_136_);fill:#B77858;}
	.st219{clip-path:url(#SVGID_136_);fill:none;stroke:#8C612D;stroke-width:0.75;stroke-miterlimit:10;}
	.st220{clip-path:url(#SVGID_136_);fill:#B1D800;}
	.st221{clip-path:url(#SVGID_136_);}
	.st222{clip-path:url(#SVGID_136_);fill:#261107;}
	.st223{clip-path:url(#SVGID_136_);fill:#FFFFFF;}
	.st224{clip-path:url(#SVGID_136_);fill:#F99C6E;}
	.st225{clip-path:url(#SVGID_142_);}
	.st226{clip-path:url(#SVGID_144_);fill:none;stroke:#003E65;stroke-width:0.75;stroke-miterlimit:10;}
	.st227{clip-path:url(#SVGID_144_);fill:#F2B07D;}
	.st228{clip-path:url(#SVGID_144_);fill:#D1D1D1;}
	.st229{clip-path:url(#SVGID_144_);fill:none;stroke:#798489;stroke-width:0.75;stroke-miterlimit:10;}
	.st230{clip-path:url(#SVGID_144_);fill:#B77858;}
	.st231{clip-path:url(#SVGID_144_);fill:none;stroke:#8C612D;stroke-width:0.75;stroke-miterlimit:10;}
	.st232{clip-path:url(#SVGID_144_);fill:#FF8F02;}
	.st233{clip-path:url(#SVGID_144_);}
	.st234{clip-path:url(#SVGID_144_);fill:#261107;}
	.st235{clip-path:url(#SVGID_144_);fill:#FFFFFF;}
	.st236{clip-path:url(#SVGID_144_);fill:#F99C6E;}
	.st237{clip-path:url(#SVGID_150_);}
	.st238{clip-path:url(#SVGID_152_);fill:none;stroke:#003E65;stroke-width:0.75;stroke-miterlimit:10;}
	.st239{clip-path:url(#SVGID_152_);fill:#F2B07D;}
	.st240{clip-path:url(#SVGID_152_);fill:#D1D1D1;}
	.st241{clip-path:url(#SVGID_152_);fill:none;stroke:#798489;stroke-width:0.75;stroke-miterlimit:10;}
	.st242{clip-path:url(#SVGID_152_);fill:#B77858;}
	.st243{clip-path:url(#SVGID_152_);fill:none;stroke:#8C612D;stroke-width:0.75;stroke-miterlimit:10;}
	.st244{clip-path:url(#SVGID_152_);fill:#0089B2;}
	.st245{clip-path:url(#SVGID_152_);}
	.st246{clip-path:url(#SVGID_152_);fill:#261107;}
	.st247{clip-path:url(#SVGID_152_);fill:#FFFFFF;}
	.st248{clip-path:url(#SVGID_152_);fill:#F99C6E;}
	.st249{clip-path:url(#SVGID_158_);}
	.st250{clip-path:url(#SVGID_160_);fill:none;stroke:#003E65;stroke-width:0.75;stroke-miterlimit:10;}
	.st251{clip-path:url(#SVGID_160_);fill:#F2B07D;}
	.st252{clip-path:url(#SVGID_160_);fill:#D1D1D1;}
	.st253{clip-path:url(#SVGID_160_);fill:none;stroke:#798489;stroke-width:0.75;stroke-miterlimit:10;}
	.st254{clip-path:url(#SVGID_160_);fill:#B77858;}
	.st255{clip-path:url(#SVGID_160_);fill:none;stroke:#8C612D;stroke-width:0.75;stroke-miterlimit:10;}
	.st256{clip-path:url(#SVGID_160_);fill:#009F00;}
	.st257{clip-path:url(#SVGID_160_);}
	.st258{clip-path:url(#SVGID_160_);fill:#261107;}
	.st259{clip-path:url(#SVGID_160_);fill:#FFFFFF;}
	.st260{clip-path:url(#SVGID_160_);fill:#F99C6E;}
	.st261{clip-path:url(#SVGID_166_);}
	.st262{clip-path:url(#SVGID_168_);fill:none;stroke:#003E65;stroke-width:0.75;stroke-miterlimit:10;}
	.st263{clip-path:url(#SVGID_168_);fill:#F2B07D;}
	.st264{clip-path:url(#SVGID_168_);fill:#D1D1D1;}
	.st265{clip-path:url(#SVGID_168_);fill:none;stroke:#798489;stroke-width:0.75;stroke-miterlimit:10;}
	.st266{clip-path:url(#SVGID_168_);fill:#B77858;}
	.st267{clip-path:url(#SVGID_168_);fill:none;stroke:#8C612D;stroke-width:0.75;stroke-miterlimit:10;}
	.st268{clip-path:url(#SVGID_168_);fill:#00A5DC;}
	.st269{clip-path:url(#SVGID_168_);}
	.st270{clip-path:url(#SVGID_168_);fill:#261107;}
	.st271{clip-path:url(#SVGID_168_);fill:#FFFFFF;}
	.st272{clip-path:url(#SVGID_168_);fill:#F99C6E;}
	.st273{clip-path:url(#SVGID_174_);}
	.st274{clip-path:url(#SVGID_176_);fill:none;stroke:#003E65;stroke-width:0.75;stroke-miterlimit:10;}
	.st275{clip-path:url(#SVGID_176_);fill:#F2B07D;}
	.st276{clip-path:url(#SVGID_176_);fill:#D1D1D1;}
	.st277{clip-path:url(#SVGID_176_);fill:none;stroke:#798489;stroke-width:0.75;stroke-miterlimit:10;}
	.st278{clip-path:url(#SVGID_176_);fill:#B77858;}
	.st279{clip-path:url(#SVGID_176_);fill:none;stroke:#8C612D;stroke-width:0.75;stroke-miterlimit:10;}
	.st280{clip-path:url(#SVGID_176_);fill:#FF1135;}
	.st281{clip-path:url(#SVGID_176_);}
	.st282{clip-path:url(#SVGID_176_);fill:#261107;}
	.st283{clip-path:url(#SVGID_176_);fill:#FFFFFF;}
	.st284{clip-path:url(#SVGID_176_);fill:#F99C6E;}
	.st285{clip-path:url(#SVGID_182_);}
	.st286{clip-path:url(#SVGID_184_);fill:none;stroke:#003E65;stroke-width:0.75;stroke-miterlimit:10;}
	.st287{clip-path:url(#SVGID_184_);fill:#F2B07D;}
	.st288{clip-path:url(#SVGID_184_);fill:#D1D1D1;}
	.st289{clip-path:url(#SVGID_184_);fill:none;stroke:#798489;stroke-width:0.75;stroke-miterlimit:10;}
	.st290{clip-path:url(#SVGID_184_);fill:#B77858;}
	.st291{clip-path:url(#SVGID_184_);fill:none;stroke:#8C612D;stroke-width:0.75;stroke-miterlimit:10;}
	.st292{clip-path:url(#SVGID_184_);fill:#FF9700;}
	.st293{clip-path:url(#SVGID_184_);}
	.st294{clip-path:url(#SVGID_184_);fill:#261107;}
	.st295{clip-path:url(#SVGID_184_);fill:#FFFFFF;}
	.st296{clip-path:url(#SVGID_184_);fill:#F99C6E;}
	.st297{clip-path:url(#SVGID_190_);}
	.st298{clip-path:url(#SVGID_192_);fill:none;stroke:#003E65;stroke-width:0.75;stroke-miterlimit:10;}
	.st299{clip-path:url(#SVGID_192_);fill:#F2B07D;}
	.st300{clip-path:url(#SVGID_192_);fill:#D1D1D1;}
	.st301{clip-path:url(#SVGID_192_);fill:none;stroke:#798489;stroke-width:0.75;stroke-miterlimit:10;}
	.st302{clip-path:url(#SVGID_192_);fill:#B77858;}
	.st303{clip-path:url(#SVGID_192_);fill:none;stroke:#8C612D;stroke-width:0.75;stroke-miterlimit:10;}
	.st304{clip-path:url(#SVGID_192_);fill:#004C9C;}
	.st305{clip-path:url(#SVGID_192_);}
	.st306{clip-path:url(#SVGID_192_);fill:#261107;}
	.st307{clip-path:url(#SVGID_192_);fill:#FFFFFF;}
	.st308{clip-path:url(#SVGID_192_);fill:#F99C6E;}
	.st309{fill:#EBEBEC;}
	.st310{fill:#C7C7C9;}
	.st311{fill:none;stroke:#606060;stroke-miterlimit:10;}
	.st312{fill:#D6D6D8;}
	.st313{opacity:0.61;fill:none;stroke:#606060;stroke-width:0.75;stroke-miterlimit:10;}
	.st314{opacity:0.49;fill:none;stroke:#606060;stroke-miterlimit:10;}
	.st315{fill:#A0A0A0;}
	.st316{fill:#878686;}
	.st317{opacity:0.45;fill:none;stroke:#545454;stroke-width:0.75;stroke-miterlimit:10;}
	.st318{opacity:0.4;fill:none;stroke:#545454;stroke-width:0.75;stroke-miterlimit:10;}
	.st319{opacity:0.41;fill:none;stroke:#545454;stroke-width:0.75;stroke-miterlimit:10;}
	.st320{opacity:0.37;fill:none;stroke:#545454;stroke-width:0.75;stroke-miterlimit:10;}
	.st321{fill:none;stroke:#C7C7C9;stroke-width:6;stroke-linecap:round;stroke-miterlimit:10;}
	.st322{opacity:0.49;fill:none;stroke:#545454;stroke-width:0.75;stroke-miterlimit:10;}
	.st323{opacity:0.48;fill:none;stroke:#545454;stroke-width:0.75;stroke-miterlimit:10;}
	.st324{fill:none;stroke:#939399;stroke-width:4;stroke-linecap:round;stroke-miterlimit:10;}
	.st325{opacity:0.39;}
	.st326{fill:#DBDFD9;}
	.st327{fill:none;stroke:#044F99;stroke-miterlimit:10;}
	.st328{opacity:0.1;fill:#044F99;}
	.st329{fill:#044F99;}
</style>
<path class="st0" d="M146.4,179.5c4.2-0.4,12.8-0.7,17.1-1.1c51.1-4,68.3-2,90.7,1.1c28.2,3.8,20.7,9.2,17.1,11.8
	c-7.6,5.6-41,6.8-54.7,9c-13.7,2.2-2.3,6.4-0.2,6.8c33.1,6.9,51.8,8.3,69,11.1c40.2,6.5,22.1,20.7,15.1,24.9
	c-20.7,12.6-51.3,5.6-68,3.2c-75.6-11.1-115.1-1.2-153.5-0.5c-24.1,0.4-63.1,4.1-62.4-8.3c0.6-10.8,32.5-11.2,44.1-11.8
	c25.9-1.4,23.5-4.9,23.5-7.4c0-6.4-26.6-10.2-36.1-12.1c-23.7-4.7-20.1-10.5-19.3-12.6c3.2-7.7,25.9-6.3,34.8-6.7
	c48.3-2.6,58.3-4.3,77.5-6.8C142.5,180,145.1,179.6,146.4,179.5z"/>
<g>
	<g class="st1">
		<path class="st2" d="M85.7,127.8l-1.5,2.7c0.5,2.9,76.6,2.7,76.6,2.7c57.3,0.4,55.3-1.2,55.3-1.2c3-1.1-0.5-4.7-0.5-4.7
			c-40.8-5-76.8-3.5-76.8-3.5c-29.4-0.6-51.9,3.9-51.9,3.9L85.7,127.8z"/>
		<path class="st3" d="M112.5,126.3h-1.7c-1.7-0.9-0.5-3.5,0-4.4c1.3-2.7,3.3-8.5,4.3-11.4c0.9-2.5,4-2.3,5.5-2.3
			c40.2-1.5,48.7-1.5,64.8,0.4c2.1,0.3,2.8,3.3,3.2,4.6c1,2.7,3.9,7.6,4.9,10.2c0.9,2.4-0.6,3.4-1.4,3.6
			C171.6,128.3,112.5,126.3,112.5,126.3z"/>
		<polygon class="st4" points="115.6,127.4 137.1,127.4 132.5,110.9 119.9,110.9 		"/>
		<path class="st4" d="M144,120.5h15.6c1.4-0.1,1.2,1.5,1.2,1.5l0,7.5c0,1-1.6,0.6-1.6,0.6l-15.5,0.1c-0.9,0-1-1-1-1v-7.5
			C142.7,120.5,144,120.5,144,120.5z"/>
		<polygon class="st4" points="166.9,127.4 188.1,127.4 183.7,110.9 171,110.9 		"/>
	</g>
	<path class="st5" d="M100.3,100.7c0.4-0.2,1.4-0.1,1.8-0.1c60.6-0.5,78-2.5,100.2,1.3c4,0.7,13.7,26.5,13.7,26.5v0.7l-47.5,1.2
		l-34.9,0.7l-23.2-0.7c-12.2,0.2-23.9-2-23.9-2C90,117.5,94.6,105.7,100.3,100.7z"/>
	<g>
		<g>
			<g>
				<g>
					<g>
						<path class="st6" d="M90,226.6c0,2.4-2.3,4.8-5,4.8H69.8c-2.8,0-4.5-1.9-5.5-4.8c0,0-1.3-6.3-1.3-18.2
							c0-8.6,0.3-12.4,0.3-12.4c0-2.4,3.3-4.3,6-4.3h15.6c2.8,0,5,1.9,5,4.3V226.6z"/>
						<path class="st6" d="M211.1,226.6c0,2.4,2.3,4.8,5.1,4.8h15.2c2.8,0,4.6-1.9,5.6-4.8c0,0,1.3-6.3,1.3-18.2
							c0-8.6-0.3-12.4-0.3-12.4c0-2.4-3.3-4.3-6.1-4.3h-15.7c-2.8,0-5.1,1.9-5.1,4.3V226.6z"/>
						<path class="st7" d="M238.8,126.7c-6.7-1.3-14-6.1-12.1,7.1c0,0-1.2,0.4-2.8,0.6c-4.2-10.2-11.7-25.6-14.5-29.6
							c-3.7-5.2-7.7-9.9-15.5-11.2c-7.3-1.2-38.4-1.7-42.6-1.7c0,0,0,0,0,0c0,0,0,0,0,0c-4.2,0.1-35.3,0.5-42.6,1.7
							c-7.9,1.3-11.8,6-15.5,11.2c-2.8,4-10.4,19.5-14.6,29.7c-1.9-0.2-3.5-0.7-3.5-0.7c1.9-13.2-5.4-8.4-12.1-7.1
							c-6.7,1.3-6,7.3-2.6,9.7c2.5,1.7,11.4,2.5,16.4,2.8c-0.4,1.1-0.7,2-0.9,2.8c-1.7,6.9-9.6,11.7-12,18.4
							c-0.1,0.2-0.2,0.5-0.2,0.9c-1.9,8.7,0.9,45.8,0.9,45.8c1.1,2.6,8.5,8,8.5,8c6.3,2.5,73.6,3.4,78.3,3.5h0h0
							c4.7-0.1,71.9-1,78.3-3.5c0,0,7.4-5.4,8.5-8c0,0,2.8-37.1,0.9-45.8c-0.1-0.3-0.2-0.6-0.2-0.9c-2.4-6.7-10.3-11.5-12-18.4
							c-0.2-0.7-0.5-1.7-0.9-2.8c5-0.4,13.3-1.2,15.6-2.8C244.9,134,245.5,128,238.8,126.7z M216.7,131c-0.3,0.3-2.2,0.4-3.4,0.4
							c-1,0-2.1,0.1-3.3,0.2c-3.7,0.4-39.3,0.8-70.5,0.8c-24.3,0-40.5-0.3-45.6-0.7c-6.1-0.6-8.4-1.2-9.2-1.6
							c0.1-0.1,0.1-0.3,0.2-0.4c0.2-0.3,0.4-0.7,0.5-1.1c0.1-0.3,0.3-0.6,0.5-1.1c5.4-13.3,10-21.9,13.6-25.4
							c4.7-0.3,30.8-1.7,59.7-1.7c16.5,0,31.2,0.5,43.5,1.4c2.1,3.5,9.5,16,12.8,24.1C217.2,130.1,216.8,130.9,216.7,131z"/>
						<path class="st8" d="M100.6,191c0,0,33.7-7.2,101.7-0.9l-2,14.1l-98.3,0.3L100.6,191z"/>
						<path class="st8" d="M237.9,178.4c0,0-2.4,3.6-3.9,3l-1.6-5c0,0-1,8.5-32,8.9l-2.7,8.9l-8.5,19l-9.9,4.6
							c20.9-0.5,46.2-1.4,49.9-2.9c0,0,7.4-5.4,8.5-8c0,0,1.2-15.4,1.5-28.7L237.9,178.4z M107.5,194.3l-2.7-8.9
							c-31-0.4-32-8.9-32-8.9l-1.6,5c-1.4,0.6-3.9-3-3.9-3l-4.8-0.3c0.3,13.3,1.5,28.9,1.5,28.9c1.1,2.6,8.5,8,8.5,8
							c4,1.6,32.1,2.5,53.5,3l-10.1-4.7L107.5,194.3z"/>
						<path class="st9" d="M217.2,125.1c-4-9.8-13.5-25.4-13.5-25.4c-44.8-3.5-105.3,0.3-105.3,0.3c-6.5,5.6-14,25.1-15.1,27.8
							c-1.2,2.7-4.2,4.8,10.2,6c14.4,1.3,110.2,0.6,116.5-0.1C216.3,133.1,221.2,134.9,217.2,125.1 M216.4,131
							c-0.3,0.3-2.2,0.4-3.4,0.4c-1,0-2.1,0.1-3.3,0.2c-3.7,0.4-39.3,0.8-70.5,0.8c-24.3,0-40.5-0.3-45.6-0.7
							c-6.1-0.6-8.4-1.2-9.2-1.6c0.1-0.1,0.1-0.3,0.2-0.4c0.2-0.3,0.4-0.7,0.5-1.1c0.1-0.3,0.3-0.6,0.5-1.1
							c5.4-13.3,10-21.9,13.6-25.4c4.7-0.3,30.8-1.7,59.7-1.7c16.5,0,31.2,0.5,43.5,1.4c2.1,3.5,9.5,16,12.8,24.1
							C216.8,130.1,216.4,130.9,216.4,131"/>
						<path class="st9" d="M226.3,191.7c-10.2,2.9-71.5,2.8-76,2.8h0h0c-4.5,0-65.8,0.1-76-2.8c0,0-3.5,11.2,8,14.3
							c11.4,3,17.3,6,68,6h0h0c50.8,0,56.6-3,68-6C229.8,202.9,226.3,191.7,226.3,191.7"/>
						<path class="st11" d="M197.3,164.4l-2.6,7.9l4.7,4l0.9,0c36.4-0.9,32.8-14.3,28.1-22C223.8,146.8,199.2,163.1,197.3,164.4"/>
						<polygon class="st9" points="194.3,173.1 194,172.9 194.1,172.6 196.6,164.9 103.7,164.9 106.2,172.6 106.3,172.9 
							106.1,173.1 101.8,176.7 150.6,177 150.6,177 151.3,177 152.1,177 152.1,177 198.6,176.7 						"/>
						<path class="st11" d="M102.9,164.4l2.6,7.9l-4.7,4l-0.9,0c-36.4-0.9-32.8-14.3-28.1-22C76.3,146.8,101,163.1,102.9,164.4"/>
						<g class="st12">
							<g>
								<defs>
									<rect id="SVGID_185_" x="195.3" y="193.7" width="29.8" height="15.2"/>
								</defs>
								<clipPath id="SVGID_2_">
									<use xlink:href="#SVGID_185_"  style="overflow:visible;"/>
								</clipPath>
							</g>
						</g>
						<g class="st12">
							<g>
								<defs>
									<rect id="SVGID_187_" x="76" y="193.7" width="29.8" height="15.2"/>
								</defs>
								<clipPath id="SVGID_4_">
									<use xlink:href="#SVGID_187_"  style="overflow:visible;"/>
								</clipPath>
							</g>
						</g>
					</g>
				</g>
			</g>
		</g>
		<g class="st13">
			<path class="st14" d="M219.1,130.3l0.2-0.4c0,0,0.1,0.1,0.3,0.2c0.4-1.2,0.1-3.2-1.3-6.5c-4-9.8-13.5-25.4-13.5-25.4
				C160,94.8,99.5,98.6,99.5,98.6c-6.5,5.6-14,25.1-15.1,27.8c-0.7,1.8-2.3,3.2,0.6,4.4c0.1,0.1,0.3,0.1,0.5,0.2c0,0,0,0,0,0
				c0,0,0,0,0,0c1.7,0.6,4.5,1.1,9.1,1.5c14.4,1.3,110.2,0.6,116.5-0.1c3.9-0.4,7.3,0.1,8.3-1.7c-0.1,0-0.1-0.1-0.1-0.1
				C219.2,130.3,219.1,130.3,219.1,130.3z M217.9,129.5c-0.3,0.3-2.2,0.4-3.4,0.4c-1,0-2.1,0.1-3.3,0.2c-3.7,0.4-39.3,0.8-70.5,0.8
				c-0.1,0-0.1,0-0.2,0c0,0-0.1,0-0.1,0c-24.3,0-40.5-0.3-45.6-0.7c-6.1-0.6-8.4-1.2-9.2-1.6c0.1-0.1,0.1-0.3,0.2-0.4
				c0.2-0.3,0.4-0.7,0.5-1.1c0.1-0.2,0.3-0.6,0.5-1.1c5.4-13.3,10-21.9,13.6-25.4c4.7-0.3,30.8-1.7,59.7-1.7c0,0,0.1,0,0.1,0
				c0.1,0,0.2,0,0.2,0c16.5,0,31.2,0.5,43.5,1.4c2.1,3.5,9.5,16,12.8,24.1C218.3,128.5,217.9,129.4,217.9,129.5z"/>
			<path class="st14" d="M72.9,152.7c-4.8,7.8-8.4,21.2,28.1,22l0.9,0l4.7-4l-2.6-7.9c-1.4-1-15.7-10.4-24.6-11.9
				c-0.1,0-0.3,0-0.4-0.1C76.2,150.5,74,151,72.9,152.7z"/>
			<path class="st14" d="M219.5,204.5c11.5-3,8-14.3,8-14.3c-2.4,0.7-7.5,1.2-14.1,1.6c-3.2,0.2-6.7,0.4-10.4,0.5
				c-1.1,0-2.3,0.1-3.4,0.1c-0.2,0-0.3,0-0.5,0l-0.1,0.4l0.1-0.4c-10.9,0.3-22.7,0.5-31.9,0.6c0,0-0.1,0-0.1,0c-0.5,0-1,0-1.5,0
				c0,0-0.1,0-0.1,0c-1,0-2,0-3,0c0,0,0,0-0.1,0c-0.4,0-0.8,0-1.1,0c-0.2,0-0.4,0-0.6,0c-0.2,0-0.5,0-0.7,0c-0.2,0-0.3,0-0.5,0
				c-0.2,0-0.4,0-0.5,0c-1.8,0-3.4,0-4.6,0c0,0,0,0,0,0c-0.7,0-1.4,0-1.8,0h0c-0.3,0-0.6,0-0.8,0c-0.1,0-0.1,0-0.2,0h0h0
				c-1.9,0-14,0-28.1-0.2c-0.2,0-0.3,0-0.5,0c-0.4,0-0.7,0-1.1,0c-0.3,0-0.6,0-0.9,0c-0.2,0-0.4,0-0.6,0c-0.4,0-0.8,0-1.2,0
				c-0.1,0-0.2,0-0.3,0c-0.5,0-0.9,0-1.4,0c0,0,0,0,0,0c-2.8-0.1-5.7-0.1-8.5-0.2c0,0.1,0.1,0.3,0.1,0.4l-0.1-0.2l-0.1-0.3
				c-2.2-0.1-4.4-0.1-6.5-0.2c-4.3-0.1-8.4-0.3-12.1-0.5c-6.8-0.4-12.2-0.9-14.6-1.6c0,0-3.5,11.2,8,14.3c2.7,0.7,5,1.4,7.7,2.1
				c5.4,1.3,12.1,2.5,25.1,3.2c8.5,0.5,19.8,0.8,35.1,0.8h0h0c18.5,0,31-0.4,40-1.1c10.3-0.8,16-1.8,20.8-3
				C214.7,205.8,216.9,205.1,219.5,204.5z"/>
			<path class="st14" d="M116.3,209.7c-13.1-0.7-19.8-1.9-25.1-3.2c-2.7-0.7-5.1-1.4-7.7-2.1c-11.5-3-8-14.3-8-14.3
				c2.4,0.7,7.8,1.2,14.6,1.6c3.7,0.2,7.8,0.4,12.1,0.5c2.1,0.1,4.3,0.1,6.5,0.2c2.8,0.1,5.7,0.1,8.5,0.2c0,0,0,0,0,0
				c0.5,0,0.9,0,1.4,0c0.1,0,0.2,0,0.3,0c0.4,0,0.8,0,1.2,0c0.2,0,0.4,0,0.6,0c0.3,0,0.6,0,0.9,0c0.4,0,0.7,0,1.1,0
				c0.2,0,0.3,0,0.5,0c14.1,0.2,26.2,0.2,28.1,0.2h0h0c0.1,0,0.1,0,0.2,0c0.2,0,0.5,0,0.8,0h0c0.5,0,1.1,0,1.8,0c0,0,0,0,0,0
				c1.2,0,2.8,0,4.6,0c0.2,0,0.4,0,0.5,0c0.2,0,0.3,0,0.5,0c0.2,0,0.5,0,0.7,0c0.2,0,0.4,0,0.6,0c0.4,0,0.7,0,1.1,0c0,0,0,0,0.1,0
				c1,0,2,0,3,0c0,0,0.1,0,0.1,0c0.5,0,1,0,1.5,0c0,0,0,0,0.1,0c9.2-0.1,21-0.2,31.9-0.6c0.2,0,0.4,0,0.5,0v0c1.2,0,2.3-0.1,3.4-0.1
				c3.7-0.1,7.2-0.3,10.4-0.5c6.6-0.4,11.7-0.9,14.1-1.6c0,0,3.5,11.2-8,14.3c-2.5,0.7-4.8,1.3-7.3,2c-4.7,1.2-10.5,2.3-20.8,3
				l-1.1,2.4l-9.9,4.6c10.6-0.3,22.3-0.6,31.8-1.1c9.2-0.5,16.3-1.1,18.2-1.8c0,0,7.4-5.4,8.5-8c0,0,0.2-2.4,0.4-6.2
				c0.4-5.7,0.9-14.5,1.1-22.5l-1.3,0.1c0,0-2.4,3.6-3.9,3l-1.6-5c0,0-1,8.5-32,8.9l-1.4,4.5c-50.1-4.4-81-1.5-92.8,0.2l-1.4-4.7
				c-31-0.4-32-8.9-32-8.9l-1.6,5c-1.4,0.6-3.9-3-3.9-3l-4.4-0.3c0.1,5.9,0.1,12.1,0.4,17.3c0.4,6.6,0.8,11.5,0.8,11.5
				c1.1,2.6,8.5,8,8.5,8c1.8,0.7,8.5,1.3,17.4,1.8v0c-8.7-0.5-15.2-1-17-1.7c1.8,0.7,8.4,1.3,17,1.7c10.6,0.6,24.4,1,36.2,1.3
				l-10.1-4.7L116.3,209.7z"/>
			<path class="st14" d="M223.2,151c-0.1,0-0.3,0-0.4,0.1c-9,1.6-22.9,10.9-24.4,11.8l-2.6,7.9l4.7,4l0.9,0
				c36.4-0.9,32.8-14.3,28.1-22C228.4,150.9,226.1,150.5,223.2,151z"/>
			<path class="st15" d="M65.2,205.5c0,0-0.4-4.9-0.8-11.5c0,0.2-0.1,0.3-0.1,0.5c0,0-0.3,3.8-0.3,12.4c0,11.8,1.3,18.2,1.3,18.2
				c1,2.8,2.8,4.8,5.5,4.8h15.1c2.8,0,5-2.4,5-4.8v-9.8c-8.8-0.5-15.6-1.1-17.4-1.8C73.8,213.5,66.3,208.1,65.2,205.5z"/>
			<path class="st15" d="M230.7,213.5c-1.9,0.7-9.1,1.3-18.5,1.8v9.7c0,2.4,2.3,4.8,5.1,4.8h15.2c2.8,0,4.6-1.9,5.6-4.8
				c0,0,1.3-6.3,1.3-18.2c0-1.4,0-2.6,0-3.7c-0.1,1.5-0.2,2.3-0.2,2.3C238.1,208.1,230.7,213.5,230.7,213.5z"/>
			<path class="st16" d="M79.5,143.2c-0.3,2.2-0.5,4.8-0.5,7.8c0.1,0,0.3,0,0.4,0.1c0-3,0.2-5.6,0.5-7.8c0.8-5.4,2.4-8.6,3.7-10.5
				c0.7-0.9,1.3-1.5,1.7-1.8c-0.2-0.1-0.3-0.1-0.5-0.2C83.4,132,80.7,135.4,79.5,143.2z"/>
			<path class="st16" d="M180.4,216.4l9.9-4.6l1.1-2.4c-9,0.7-21.5,1.1-40,1.1h0h0c-15.4,0-26.6-0.3-35.1-0.8l0.9,2.1l10.1,4.7
				c12.8,0.3,23.3,0.4,25.1,0.5h0h0c3.3,0,37.6-0.5,59.8-1.6v0C202.7,215.8,191,216.2,180.4,216.4z"/>
			<path class="st15" d="M111.3,91.9c0,0-1.1,0.1-1.5,0.2c-7.9,1.3-11.8,6-15.5,11.2c-2.8,4-10.4,19.5-14.6,29.7
				c-1.9-0.2-3.5-0.7-3.5-0.7c1.9-13.2-5.4-8.4-12.1-7.1c-6.7,1.3-6,7.3-2.6,9.7c2.5,1.7,11.4,2.5,16.4,2.8c-0.4,1.1-0.7,2-0.9,2.8
				c-1.8,6.9-9.6,11.7-12,18.4c-0.1,0.2-0.2,0.5-0.2,0.9c-0.7,3.1-0.8,9.7-0.6,16.9l4.4,0.3c0,0,2.4,3.6,3.9,3l1.6-5
				c0,0,1,8.5,32,8.9l1.4,4.7c11.9-1.7,42.8-4.6,92.8-0.2l1.4-4.5c31-0.4,32-8.9,32-8.9l1.6,5c1.4,0.6,3.9-3,3.9-3l1.3-0.1
				c-0.2,8-0.7,16.8-1.1,22.5c0,1.1,0.1,2.4,0.1,3.9c0.6-8.3,2.4-36.1,0.7-43.5c-0.1-0.3-0.2-0.6-0.2-0.9
				c-2.4-6.7-10.3-11.5-12-18.4c-0.2-0.7-0.5-1.7-0.9-2.8c5-0.4,13.3-1.2,15.6-2.8c3.5-2.4,4.1-8.4-2.6-9.7c-6.7-1.3-14-6-12.1,7.1
				c0,0-1.2,0.4-2.8,0.6c-4.2-10.2-11.7-25.6-14.5-29.6c-3.7-5.2-7.7-9.9-15.5-11.2c-1.2-0.2-3.1-0.4-5.4-0.5
				C189.7,91.6,152,87.7,111.3,91.9z M116,93.8 M153.2,175.5L153.2,175.5l-0.8,0l-0.7,0v0l-48.8-0.3l4.3-3.6l0.2-0.2l-0.1-0.3
				l-2.5-7.7h92.9l-2.5,7.7l-0.1,0.3l0.2,0.2l4.3,3.6L153.2,175.5z M229.5,152.7c4.8,7.8,8.4,21.2-28.1,22l-0.9,0l-4.7-4l2.6-7.9
				c1.4-1,15.4-10.2,24.4-11.8c0.4-2.9,0.6-5.4,0.6-7.5c0-5.3-1.1-8.7-2.2-10.6c-0.5-1-1.1-1.6-1.5-2c-0.1-0.1-0.2-0.2-0.3-0.3
				c-1.1,1.8-4.4,1.3-8.3,1.7c-6.3,0.7-102.1,1.4-116.5,0.1c-4.6-0.4-7.5-0.9-9.1-1.5c-0.4,0.3-1.1,0.9-1.7,1.8
				c-1.4,1.8-2.9,5-3.7,10.5c-0.3,2.2-0.5,4.8-0.5,7.8c8.9,1.5,23.2,10.9,24.6,11.9l2.6,7.9l-4.7,4l-0.9,0
				c-36.4-0.9-32.8-14.3-28.1-22c1.1-1.8,3.3-2.2,6.1-1.8c0-3,0.2-5.6,0.5-7.8c1.2-7.8,3.9-11.1,5.4-12.4c-2.9-1.2-1.4-2.6-0.6-4.4
				c1.2-2.7,8.6-22.2,15.1-27.8c0,0,60.5-3.7,105.3-0.3c0,0,9.5,15.6,13.5,25.4c1.4,3.3,1.7,5.3,1.3,6.5c1,0.8,4.2,4.1,4.2,13.4
				c0,2.1-0.2,4.6-0.6,7.5C226.1,150.5,228.4,150.9,229.5,152.7z"/>
			<path class="st17" d="M214.1,129.9c1.2-0.1,3.1-0.1,3.4-0.4c0,0,0.4-0.9-1.3-5c-3.4-8.2-10.7-20.6-12.8-24.1
				c-12.3-0.9-26.9-1.4-43.4-1.4c-28.8,0-54.7,1.4-59.4,1.7c-3.6,3.5-8.1,12-13.6,25.4c-0.2,0.5-0.4,0.9-0.5,1.1
				c-0.2,0.4-0.4,0.8-0.5,1.1c-0.1,0.1-0.1,0.3-0.2,0.4c0.8,0.4,3,1,9.2,1.6c5.1,0.5,21.2,0.7,45.4,0.7c31.2,0,66.7-0.4,70.4-0.8
				C212,130,213.1,129.9,214.1,129.9z"/>
			<path class="st17" d="M203.8,100.3c-12.3-0.9-26.9-1.4-43.5-1.4c-0.1,0-0.2,0-0.2,0c16.5,0,31.1,0.5,43.4,1.4
				c2.1,3.5,9.5,16,12.8,24.1c1.7,4.1,1.3,5,1.3,5c-0.3,0.3-2.2,0.4-3.4,0.4c-1,0-2.1,0.1-3.3,0.2c-3.7,0.4-39.2,0.8-70.4,0.8
				c0.1,0,0.1,0,0.2,0c31.2,0,66.8-0.4,70.5-0.8c1.2-0.1,2.3-0.2,3.3-0.2c1.2-0.1,3.1-0.1,3.4-0.4c0,0,0.4-0.9-1.3-5
				C213.3,116.3,205.9,103.9,203.8,100.3z"/>
			<path class="st15" d="M223.8,143.5c0-9.3-3.2-12.6-4.2-13.4c0,0.1-0.1,0.3-0.2,0.4c0.1,0.1,0.2,0.2,0.3,0.3c0.4,0.4,0.9,1,1.5,2
				c1.1,2,2.2,5.3,2.2,10.6c0,2.2-0.2,4.7-0.6,7.5c0.2,0,0.3-0.1,0.4-0.1C223.6,148.1,223.8,145.6,223.8,143.5z"/>
			<path class="st16" d="M219.3,129.9l-0.2,0.4c0,0,0.1,0,0.2,0.1c0,0,0.1,0.1,0.1,0.1c0.1-0.1,0.1-0.3,0.2-0.4
				C219.5,130,219.3,129.9,219.3,129.9z"/>
			<path class="st16" d="M85.9,128.7c0.1-0.1,0.1-0.3,0.2-0.4c0.2-0.3,0.4-0.7,0.5-1.1c0.1-0.2,0.3-0.6,0.5-1.1
				c5.4-13.3,10-21.9,13.6-25.4c4.7-0.3,30.6-1.7,59.4-1.7c0,0-0.1,0-0.1,0c-28.9,0-54.9,1.4-59.7,1.7c-3.6,3.5-8.1,12-13.6,25.4
				c-0.2,0.5-0.4,0.9-0.5,1.1c-0.2,0.4-0.4,0.8-0.5,1.1c-0.1,0.1-0.1,0.3-0.2,0.4c0.8,0.4,3,1,9.2,1.6c5.1,0.5,21.3,0.7,45.6,0.7
				c0,0,0.1,0,0.1,0c-24.2,0-40.3-0.3-45.4-0.7C88.9,129.7,86.7,129.1,85.9,128.7z"/>
			<path class="st16" d="M238.9,205.5c-1.1,2.6-8.5,8-8.5,8c-1.9,0.7-8.9,1.3-18.2,1.8v0c9.4-0.5,16.6-1.1,18.5-1.8
				c0,0,7.4-5.4,8.5-8c0,0,0.1-0.9,0.2-2.3c0-1.5,0-2.8-0.1-3.9C239.1,203.1,238.9,205.5,238.9,205.5z"/>
			<path class="st16" d="M162.4,193c1,0,2,0,3,0C164.4,193,163.4,193,162.4,193z"/>
			<path class="st16" d="M151.6,193c0.2,0,0.5,0,0.8,0C152.1,193,151.8,193,151.6,193z"/>
			<path class="st16" d="M154.3,193c1.2,0,2.8,0,4.6,0C157.1,193,155.5,193,154.3,193z"/>
			<path class="st16" d="M154.3,193c-0.7,0-1.4,0-1.8,0C152.9,193,153.5,193,154.3,193z"/>
			<path class="st16" d="M154.3,193C154.3,193,154.3,193,154.3,193C154.3,193,154.3,193,154.3,193z"/>
			<path class="st16" d="M108.8,192.9c0-0.1-0.1-0.3-0.1-0.4c2.8,0.1,5.7,0.1,8.5,0.2c-2.8-0.1-5.7-0.1-8.5-0.2l0.1,0.3L108.8,192.9
				z"/>
			<path class="st16" d="M151.4,193c-1.9,0-14,0-28.1-0.2C137.4,193,149.5,193,151.4,193z"/>
			<path class="st16" d="M199,192.4c-10.9,0.3-22.7,0.5-31.9,0.6C176.3,192.9,188.1,192.7,199,192.4L199,192.4z"/>
			<path class="st16" d="M91.1,215.3c10.7,0.6,24.4,1,36.2,1.2l0,0C115.5,216.3,101.7,215.8,91.1,215.3L91.1,215.3z"/>
			<path class="st16" d="M199.5,192.4L199.5,192.4c-0.2,0-0.3,0-0.5,0l0,0C199.2,192.4,199.3,192.4,199.5,192.4z"/>
			<polygon class="st15" points="195.2,171.4 195.3,171.1 197.8,163.4 104.9,163.4 107.4,171.1 107.5,171.4 107.3,171.6 
				102.9,175.2 151.7,175.5 151.7,175.5 152.5,175.5 153.2,175.5 153.2,175.5 199.7,175.2 195.4,171.6 			"/>
		</g>
	</g>
	<path class="st18" d="M234.6,143.7c0,0-11.4-0.2-11.4,0.3c-1.3,10.9-2.5,30.2,2.2,42l34.9,23.4v-3.3l-26.1-25.2
		c0,0-3.9-15.4-1.9-24.8l10.1-2.1c0,0,0,43.5,2.1,68l1,0.8c0,0,4.8-68.5,2-83.7c-2.8-15.2-26.4-4.1-26.4-4.1"/>
	<path class="st18" d="M257.9,231.9c0,0.8-4.4,1.5-9.9,1.5c-5.5,0-9.9-0.7-9.9-1.5c0-0.8,4.4-1.5,9.9-1.5
		C253.5,230.3,257.9,231,257.9,231.9z"/>
	<path class="st18" d="M269.7,223.7c0,0.7-3.4,1.2-7.5,1.2c-4.2,0-7.5-0.5-7.5-1.2c0-0.7,3.4-1.2,7.5-1.2
		C266.3,222.5,269.7,223,269.7,223.7z"/>
	<g>
		<defs>
			<rect id="SVGID_189_" x="165.4" y="63" width="172.2" height="169.8"/>
		</defs>
		<clipPath id="SVGID_6_">
			<use xlink:href="#SVGID_189_"  style="overflow:visible;"/>
		</clipPath>
		<g class="st19">
			<defs>
				<rect id="SVGID_191_" x="165.4" y="63" width="172.2" height="169.8"/>
			</defs>
			<clipPath id="SVGID_8_">
				<use xlink:href="#SVGID_191_"  style="overflow:visible;"/>
			</clipPath>
			<path class="st20" d="M242.4,193c0.1,0.2,0.1,0.4,0.2,0.4c0,0,0,0,0,0"/>
			<path class="st20" d="M242.3,192.6c0,0.1,0.1,0.3,0.1,0.4C242.4,192.9,242.3,192.7,242.3,192.6z"/>
			<path class="st20" d="M242.6,193.5C242.6,193.5,242.6,193.5,242.6,193.5"/>
			<path class="st20" d="M242.4,193C242.4,193,242.4,193,242.4,193C242.4,193,242.4,193,242.4,193z"/>
			<path class="st20" d="M242.6,193.5C242.6,193.5,242.6,193.5,242.6,193.5L242.6,193.5"/>
			<path class="st20" d="M242.6,193.5C242.6,193.5,242.6,193.5,242.6,193.5C242.6,193.5,242.6,193.5,242.6,193.5z"/>
			<path class="st20" d="M242.6,153.2c0.2,0.4,0.3,0.9,0.4,1.3C242.9,154,242.8,153.6,242.6,153.2z"/>
			<path class="st21" d="M222.2,108.4c-0.9,0.1-1.9,0.1-2.9,0.1c-0.5,0,3.4-5.9,3-6c0,0.5-5.2,0.5-6,6.9
				c-3.4,25.4-2.7,40.1-6.7,41.2c0,0-0.2,0-0.6,0.1l0,0c-1.4,0.2-9.4-1.4-9.3,1.2c0,0,0,0.8,0.2,1.2c0,0,0.4,1.9,2.1,1.9
				c0.6,0,0.1,0.1,1.8,0c0.8-0.1,6.6-0.6,6.6-0.6s4.8,0,5.2-2.7c3.1-6.4,7.4-42,7.4-42S222.2,109,222.2,108.4"/>
			<path class="st21" d="M271.1,108.2c0.1-0.9-0.3-1.6-0.3-1.6s-0.1-1.3-1-1.4c-0.9-0.1-3.1-0.3-3.1-0.3s0.1-1.7,0.4-3.1
				c0.4-1.5-0.8-2.2-1.2-1.8c-0.4,0.4-1,4.2-1.3,5.1c-0.3,0.9-0.6,3.6-0.8,4.1c-0.2,0.5-1,1.5-1.3,1.8c-0.2,0.2-0.4,0.4-0.6,0.6
				c-2.6,2.5-7,6.9-9.2,8.3l0.6-6.9l-5.9,2.9c0,0-4,13.1,0.4,14.2c3.9,0.9,10-3.7,15.5-12.6l0,0c0,0,3.1-4.4,3.4-4.9
				c0.3-0.5,0.7-0.6,1.6-0.7c0.9-0.1,2.1-0.7,2.5-1.3c0.4-0.6,0.2-1.3,0.2-1.3C271.4,109.1,271.1,108.2,271.1,108.2"/>
			<path class="st22" d="M223.3,135.3c0,0-2.4,33.8,4.4,51l33.6,24.9l1.3-4.8l-26.1-25.2c0,0-3.9-15.4-1.9-24.8l5.2-1.2
				c0,0,1.1,43.5,3.2,67.9h4.8c0,0,4.8-68.5,1.9-83.7C246.9,124.3,223.3,135.3,223.3,135.3"/>
			<path class="st23" d="M249.7,202.1c0.1-2.6,0.3-5.4,0.4-8.3"/>
			<path class="st23" d="M241.4,185.4c0.1,3.6,0.3,7.2,0.5,10.9"/>
			<path class="st23" d="M241.9,196.3c0.5,9.5,1,19.1,1.7,26.8h4.8c0,0,0.6-8.9,1.3-21"/>
			<path class="st23" d="M263.3,206.4l-13.1-12.7c-0.1,2.9-0.3,5.7-0.4,8.3l12.3,9.1L263.3,206.4z"/>
			<path class="st23" d="M250.1,193.8c1-20.6,1.8-45.8,0.2-54.3c-2.8-15.2-26.4-4.1-26.4-4.1s-2.4,33.8,4.4,51l13.5,10
				c-0.2-3.7-0.3-7.4-0.5-10.9l-4.3-4.2c0,0-3.9-15.4-1.9-24.8l5.2-1.2c0,0,0.3,13.8,1,30.2"/>
			<path class="st24" d="M242.9,223.1v3.6c0,0,9.2,5.1,16,6c0,0,1-4.8-10.7-8.1l-0.5-1.5H242.9z"/>
			<path class="st25" d="M243.7,223.1v3.6c0,0,9.2,5.1,16,6c0,0,1-4.8-10.7-8.1l-0.5-1.5H243.7z"/>
			<path class="st24" d="M262.3,207.5l6.8,5c0,0-1.9,9.6-4.8,10.6h-7.4c0,0-0.1-2.9,4.9-4.3l1.7-7l-1.9-1.4L262.3,207.5z"/>
			<path class="st25" d="M263,207.5l6.8,5c0,0-1.9,9.6-4.8,10.6h-7.4c0,0-0.1-2.9,4.9-4.3l1.7-7l-1.9-1.4L263,207.5z"/>
			<path style="clip-path:url(#SVGID_8_);fill:#004C9C;" d="M254,115.6c0,0,2.7-10.6-6.2-13.4c-4-1.3-18.3-4.9-18.3-4.9
				s-6.8-2.2-10.7,2.9c-1.7,2.5-3.9,4-4.8,13.4c0,0,2.3,2.5,7.2,2.9c-0.4,6.1,0,14.8,1.9,27.2c0,0,15,6,28.1,2.9
				c0,0-3.2-14.9-3-28.4L254,115.6z"/>
			<path class="st20" d="M254.9,115.6c0,0,2.7-10.6-6.2-13.4c-4-1.3-18.3-4.9-18.3-4.9s-6.8-2.2-10.7,2.9c-1.7,2.5-3.9,4-4.8,13.4
				c0,0,2.3,2.5,7.2,2.9c-0.4,6.1,0,14.8,1.8,27.2c0,0,15,6,28.1,2.9c0,0-3.2-14.9-3-28.4L254.9,115.6z"/>
			<path class="st21" d="M229.8,97.4c0,0-0.9,7.2,6.3,7.8c7.3,0.5,5.6-4.6,5.6-4.6L229.8,97.4z"/>
			<path class="st21" d="M229.2,78.1c-2.4,8.1,1.1,16.5,8.1,18.3c8,2.1,14.4-2.8,16.9-10.9c2.4-8.1-1.2-16.3-8.1-18.3
				C239.2,65.2,231.7,70.1,229.2,78.1"/>
			<path class="st21" d="M239.4,97.1c-2.1-0.1-3.9-0.9-5.5-2.1l-1.2,5.7l5.5,1.9l0.9-4.3L239.4,97.1z"/>
			<path class="st27" d="M232.8,82.4c0,0,0-0.1,0.1-0.3c0.1-0.2,0.2-0.5,0.4-0.7c0.1-0.1,0.2-0.3,0.4-0.4c0.1-0.1,0.2-0.1,0.3-0.2
				c0.1-0.1,0.2-0.1,0.3-0.2c0.2-0.1,0.5-0.2,0.7-0.2c0.1,0,0.2,0,0.4,0l0.4,0l0,0l0,0l0,0l0,0l0.1,0l0.2,0c0.1,0,0.3,0.1,0.4,0.1
				c0.2,0.1,0.4,0.3,0.6,0.5c0.1,0.1,0.2,0.2,0.2,0.3c0,0.1,0.1,0.2,0.1,0.3c0.1,0.2,0.1,0.4,0.1,0.6c0,0.4,0,0.6-0.1,0.8
				c-0.1,0.2-0.1,0.3-0.1,0.3s0-0.1-0.1-0.3c0-0.1,0-0.2-0.1-0.3c0-0.1-0.1-0.3-0.1-0.4c-0.1-0.1-0.1-0.3-0.2-0.4
				c-0.1-0.1-0.2-0.2-0.3-0.4c-0.1-0.1-0.3-0.2-0.4-0.2c-0.1,0-0.1-0.1-0.2-0.1l-0.2,0l-0.1,0l0,0l0,0h0c0,0,0,0,0,0l0,0h0l-0.3,0
				l-0.3,0c-0.1,0-0.2,0-0.3,0c-0.1,0-0.2,0-0.3,0c-0.2,0-0.3,0.1-0.5,0.2c-0.1,0.1-0.3,0.2-0.4,0.2c-0.3,0.2-0.5,0.3-0.6,0.5
				C232.8,82.3,232.8,82.4,232.8,82.4"/>
			<path class="st27" d="M242.7,84.6c0,0,0-0.1,0.1-0.3c0.1-0.2,0.2-0.4,0.5-0.7c0.1-0.1,0.3-0.3,0.4-0.4c0.1-0.1,0.2-0.1,0.3-0.2
				c0.1,0,0.2-0.1,0.3-0.1c0.2-0.1,0.5-0.1,0.7-0.1c0.1,0,0.2,0,0.4,0l0.4,0.1l0,0l0,0l0,0l0,0l0.1,0l0.2,0.1c0.1,0,0.2,0.1,0.4,0.2
				c0.2,0.1,0.4,0.3,0.6,0.5c0.1,0.1,0.1,0.2,0.2,0.3c0,0.1,0.1,0.2,0.1,0.3c0.1,0.2,0.1,0.4,0.1,0.6c0,0.4-0.1,0.6-0.2,0.8
				c-0.1,0.2-0.1,0.3-0.1,0.3s0-0.1,0-0.3c0-0.1,0-0.2-0.1-0.3c0-0.1-0.1-0.3-0.1-0.4c0-0.1-0.1-0.3-0.2-0.4
				c-0.1-0.1-0.2-0.3-0.3-0.4c-0.1-0.1-0.3-0.2-0.4-0.3c-0.1,0-0.1-0.1-0.2-0.1l-0.2,0l-0.1,0l0,0l0,0h0c0,0,0,0,0,0l0,0l0,0
				l-0.3-0.1l-0.3,0c-0.1,0-0.2,0-0.3,0c-0.1,0-0.2,0-0.3,0c-0.2,0-0.3,0.1-0.5,0.1c-0.2,0.1-0.3,0.1-0.4,0.2
				c-0.3,0.1-0.5,0.3-0.6,0.4C242.8,84.6,242.7,84.6,242.7,84.6"/>
			<path class="st28" d="M232.8,79.1c0,0,1.9-2.9,6.3-0.9l-1.2,1C238,79.2,236,78.4,232.8,79.1"/>
			<path class="st28" d="M248.7,82.8c0,0,0.6-2.5-4.7-3.4l0.2,1.1C244.2,80.4,246.6,80.9,248.7,82.8"/>
			<path class="st29" d="M233.4,87.4c0,0,6.5,3.9,11.3,3c0,0-2,2.4-5.6,1.7C234.5,91.3,233.4,87.4,233.4,87.4"/>
			<path class="st30" d="M240,83.3c0,0,1.2,2.6,0.8,4.7c-0.4,2.1-1.7,0.1-1.7,0.1L240,83.3z"/>
		</g>
	</g>
	<path class="st31" d="M257.1,81.7c0-0.2-0.1-0.4-0.1-0.6c0.3-1.9,0.1-6-0.7-8.3c-0.8-2.3-3.6-5-7.7-6.8c-4.1-1.8-8.7,0.1-8.7,0.1
		s-0.4-1.2-0.9-1.6c-0.5-0.5-2.2-0.6-2.2-0.6s1,0.6,1.1,1c0.2,0.7-0.1,1.1-0.1,1.1s-1.1-0.9-1.7-1.1c-1-0.3-2.6,0.6-2.6,0.6
		s1.2-0.4,2.1-0.1c0.3,0.1,1,0.7,1,0.7s-1.6-0.3-5.4,1.9c-2.9,1.7-3.8,4.8-3.8,4.8l2.1-0.5c0,0-0.6,0.4-1,0.9
		c-2.3,2.9-1.5,6.7-1.5,6.7s0.6,0.2,0.7,1.7c0.2,1.9,0.1,4.2,0.1,4.2l0.6,0.2c0,0,0.2-5.7,2-8.3c0.5-0.7,1.7-2.1,2.6-1.9
		c0,0,0.8-0.4,1.4-1.4c0.6-1,2.6-2.4,3.5-2.5c0.9-0.1,1.2,0.5,1.2,0.5s1.5-0.6,3.9-0.3c2.4,0.3,2.9,3,3,4.4c0.1,1.4-0.3,1.9-0.3,1.9
		s1.4-1.2,1.8-2.8c0.1-0.5,0.1-0.9,0.1-1.2c0.3,0.2,1.4,1,0.7,4.3c-0.3,1.6-2.1,2.2-2.1,2.2s3.6-0.3,4.1-4.5
		c0.5,0.9,0.9,2.1,0.8,2.9c0,1.2,1.6,4.4,1.6,4.9c0.1,3.1-2.9,8-2.9,8l0.6,0.2c0,0,1.1-2,2.3-3.5c0.9-1.1,1.5-1,1.5-1
		S257.5,85.3,257.1,81.7 M247.7,73.8C247.7,73.7,247.7,73.7,247.7,73.8L247.7,73.8L247.7,73.8z"/>
	<path class="st32" d="M256.6,81.7c0-0.2-0.1-0.4-0.1-0.6c0.3-1.9,0.1-6-0.7-8.3c-0.8-2.3-3.6-5-7.7-6.8c-4.1-1.8-8.7,0.1-8.7,0.1
		s-0.4-1.2-0.8-1.6c-0.5-0.5-2.2-0.6-2.2-0.6s1,0.6,1.1,1c0.2,0.7-0.1,1.1-0.1,1.1s-1.1-0.9-1.7-1.1c-1-0.3-2.6,0.6-2.6,0.6
		s1.2-0.4,2.1-0.1c0.3,0.1,1,0.7,1,0.7s-1.6-0.3-5.4,1.9c-2.9,1.7-3.8,4.8-3.8,4.8l2.1-0.5c0,0-0.6,0.4-1,0.9
		c-2.3,2.9-1.5,6.7-1.5,6.7s0.6,0.2,0.7,1.7c0.2,1.9,0.1,4.2,0.1,4.2l0.6,0.2c0,0,0.2-5.7,2-8.3c0.5-0.7,1.7-2.1,2.6-1.9
		c0,0,0.8-0.4,1.4-1.4c0.6-1,2.6-2.4,3.5-2.5c0.9-0.1,1.2,0.5,1.2,0.5s1.5-0.6,3.9-0.3c2.4,0.3,2.9,3,3,4.4c0.1,1.4-0.3,1.9-0.3,1.9
		s1.4-1.2,1.8-2.8c0.1-0.5,0.1-0.9,0.1-1.2c0.3,0.2,1.4,1,0.7,4.3c-0.3,1.6-2.1,2.2-2.1,2.2s3.6-0.3,4.1-4.5
		c0.5,0.9,0.9,2.1,0.8,2.9c0,1.2,1.6,4.4,1.6,4.9c0.1,3.1-2.9,8-2.9,8l0.6,0.2c0,0,1.1-2,2.3-3.5c0.9-1.1,1.5-1,1.5-1
		S256.9,85.3,256.6,81.7 M247.2,73.8C247.2,73.7,247.2,73.7,247.2,73.8L247.2,73.8L247.2,73.8z"/>
</g>
</svg>
