<?xml version="1.0" encoding="utf-8"?>
<!-- Generator: Adobe Illustrator 16.0.0, SVG Export Plug-In . SVG Version: 6.00 Build 0)  -->
<!DOCTYPE svg PUBLIC "-//W3C//DTD SVG 1.1//EN" "http://www.w3.org/Graphics/SVG/1.1/DTD/svg11.dtd">
<svg version="1.1" id="Capa_1" xmlns="http://www.w3.org/2000/svg" xmlns:xlink="http://www.w3.org/1999/xlink" x="0px" y="0px"
	 width="1003.313px" height="229.762px" viewBox="0 0 1003.313 229.762" enable-background="new 0 0 1003.313 229.762"
	 xml:space="preserve">
<g>
	<path fill="#FFFFFF" d="M293.147,129.455h-48.202c-2.064,0-3.096-1.031-3.096-3.096V37.768c0-2.063,1.032-3.095,3.096-3.095h48.202
		c1.964,0,2.947,1.031,2.947,3.095v10.024c0,2.063-0.983,3.095-2.947,3.095h-30.808c-1.18,0-1.769,0.542-1.769,1.622v19.162
		c0,1.083,0.589,1.622,1.769,1.622h25.207c2.063,0,3.095,1.032,3.095,3.096v10.023c0,2.063-1.032,3.096-3.095,3.096h-25.207
		c-1.18,0-1.769,0.541-1.769,1.621v20.489c0,1.083,0.589,1.622,1.769,1.622h30.808c1.964,0,2.947,1.031,2.947,3.096v10.023
		C296.095,128.424,295.112,129.455,293.147,129.455z"/>
	<path fill="#FFFFFF" d="M327.344,129.455h-12.528c-2.063,0-3.097-1.031-3.097-3.096V28.924c0-2.064,1.032-3.096,3.097-3.096h12.528
		c2.063,0,3.097,1.031,3.097,3.096v97.436C330.439,128.424,329.407,129.455,327.344,129.455z"/>
	<path fill="#FFFFFF" d="M444.234,34.673h21.815c2.063,0,3.097,1.031,3.097,3.095v88.591c0,2.064-1.032,3.097-3.097,3.097h-12.087
		c-2.063,0-3.096-1.031-3.096-3.097v-69.87h-0.59l-15.035,49.382c-0.59,1.967-1.819,2.948-3.687,2.948h-12.383
		c-1.867,0-3.095-0.981-3.685-2.948l-15.33-49.529h-0.59v70.02c0,1.18-0.197,1.99-0.59,2.433c-0.395,0.442-1.229,0.663-2.506,0.663
		h-12.088c-2.063,0-3.096-1.031-3.096-3.096V37.768c0-2.063,1.032-3.095,3.096-3.095h21.964c1.375,0,2.309,0.688,2.801,2.063
		l15.626,52.035h0.884l15.772-52.035C441.729,35.361,442.662,34.673,444.234,34.673z"/>
	<path fill="#FFFFFF" d="M542.259,129.455h-32.576c-7.765,0-13.76-2.063-17.983-6.191c-4.228-4.127-6.339-10.071-6.339-17.836
		V78.305c0-7.762,2.111-13.709,6.339-17.836c4.224-4.128,10.219-6.191,17.983-6.191h11.646c7.762,0,13.758,2.063,17.981,6.191
		c4.228,4.127,6.341,10.074,6.341,17.836v18.721c0,2.063-1.031,3.096-3.097,3.096h-36.998c-1.18,0-1.77,0.541-1.77,1.621v3.243
		c0,3.047,0.662,5.233,1.99,6.56c1.325,1.327,3.561,1.99,6.707,1.99h29.774c2.064,0,3.097,1.082,3.097,3.243v9.729
		c0,1.083-0.222,1.844-0.662,2.285C544.25,129.234,543.439,129.455,542.259,129.455z M505.556,87.591h20.048
		c1.079,0,1.62-0.538,1.62-1.621v-7.075c0-3.145-0.641-5.355-1.916-6.634c-1.276-1.275-3.489-1.916-6.633-1.916h-6.19
		c-3.146,0-5.357,0.641-6.634,1.916c-1.278,1.278-1.918,3.489-1.918,6.634v7.075C503.933,87.053,504.472,87.591,505.556,87.591z"/>
	<path fill="#FFFFFF" d="M554.64,153.925h-9.877c-2.063,0-3.096-1.032-3.096-3.095v-10.023c0-2.064,1.033-3.096,3.096-3.096h4.129
		c4.423,0,7.443-0.789,9.064-2.359c1.621-1.572,2.432-4.568,2.432-8.992V57.373c0-2.063,1.033-3.096,3.097-3.096h12.528
		c2.064,0,3.097,1.032,3.097,3.096v72.377c0,7.665-2.162,13.609-6.484,17.837C568.298,151.811,562.306,153.925,554.64,153.925z
		 M560.388,41.601V28.777c0-1.965,0.982-2.948,2.949-2.948h12.824c1.965,0,2.947,0.935,2.947,2.8v12.973
		c0,1.967-0.982,2.948-2.947,2.948h-12.824C561.371,44.549,560.388,43.568,560.388,41.601z"/>
	<path fill="#FFFFFF" d="M632.029,129.455H618.91c-7.767,0-13.76-2.063-17.984-6.191c-4.227-4.127-6.338-10.071-6.338-17.836V78.305
		c0-7.762,2.111-13.709,6.338-17.836c4.226-4.128,10.219-6.191,17.984-6.191h13.119c7.664,0,13.635,2.089,17.91,6.265
		c4.272,4.179,6.411,10.098,6.411,17.763v27.123c0,7.665-2.139,13.586-6.411,17.762
		C645.664,127.368,639.693,129.455,632.029,129.455z M621.71,113.388h7.519c3.145,0,5.381-0.638,6.706-1.916
		c1.326-1.276,1.99-3.487,1.99-6.634V78.895c0-3.145-0.664-5.355-1.99-6.634c-1.325-1.275-3.563-1.916-6.706-1.916h-7.519
		c-3.146,0-5.356,0.641-6.633,1.916c-1.279,1.278-1.918,3.489-1.918,6.634v25.943c0,3.146,0.639,5.357,1.918,6.634
		C616.354,112.75,618.564,113.388,621.71,113.388z"/>
	<path fill="#FFFFFF" d="M686.714,129.455h-12.529c-2.063,0-3.096-1.031-3.096-3.096V57.373c0-2.063,1.031-3.096,3.096-3.096h12.529
		c2.064,0,3.096,1.032,3.096,3.096v5.012h0.591c1.08-2.653,2.996-4.666,5.748-6.044c2.75-1.375,5.649-2.063,8.696-2.063h5.308
		c1.965,0,2.946,1.032,2.946,3.096v10.171c0,1.18-0.221,1.99-0.661,2.433c-0.443,0.442-1.205,0.614-2.285,0.516H699.98
		c-6.779,0-10.171,3.833-10.171,11.498v44.369C689.81,128.424,688.779,129.455,686.714,129.455z"/>
</g>
<g>
	<path fill="#FFFFFF" d="M233.765,194.957v-2.109c0-1.476,0.73-2.215,2.191-2.215h8.867c1.46,0,2.191,0.739,2.191,2.215v0.844
		c0,2.674,0.521,4.502,1.564,5.485c1.043,0.984,2.955,1.478,5.738,1.478h4.903c2.712,0,4.606-0.528,5.686-1.583
		c1.077-1.056,1.617-3.022,1.617-5.906v-1.267c0-2.037-0.818-3.603-2.451-4.692c-1.635-1.089-3.669-1.74-6.103-1.951
		c-2.436-0.211-5.06-0.614-7.876-1.213c-2.816-0.597-5.442-1.371-7.876-2.319c-2.435-0.949-4.47-2.813-6.103-5.591
		c-1.635-2.776-2.452-6.345-2.452-10.705v-3.69c0-5.485,1.529-9.737,4.59-12.764c3.06-3.021,7.303-4.533,12.728-4.533h10.432
		c5.493,0,9.77,1.512,12.832,4.533c3.06,3.025,4.59,7.277,4.59,12.764v2.004c0,1.477-0.73,2.215-2.191,2.215h-8.867
		c-1.46,0-2.19-0.738-2.19-2.215v-0.635c0-2.74-0.522-4.604-1.565-5.588s-2.957-1.479-5.737-1.479h-4.068
		c-2.853,0-4.783,0.546-5.79,1.636c-1.009,1.091-1.513,3.216-1.513,6.38v2.006c0,3.305,2.851,5.203,8.555,5.694
		c5.91,0.493,11.162,1.688,15.752,3.586c2.434,1.056,4.468,2.937,6.103,5.644c1.634,2.707,2.452,6.17,2.452,10.39v3.585
		c0,5.484-1.53,9.74-4.59,12.764c-3.062,3.022-7.303,4.533-12.728,4.533h-11.371c-5.425,0-9.667-1.511-12.727-4.533
		C235.294,204.698,233.765,200.441,233.765,194.957z"/>
	<path fill="#FFFFFF" d="M329.844,212.254h-23.055c-5.495,0-9.738-1.477-12.727-4.43c-2.992-2.953-4.486-7.206-4.486-12.762v-19.406
		c0-5.555,1.494-9.809,4.486-12.762c2.989-2.955,7.232-4.432,12.727-4.432h8.241c5.493,0,9.735,1.477,12.728,4.432
		c2.989,2.953,4.486,7.207,4.486,12.762v13.395c0,1.477-0.731,2.215-2.191,2.215h-26.185c-0.834,0-1.252,0.387-1.252,1.16v2.32
		c0,2.181,0.469,3.744,1.409,4.693c0.938,0.949,2.52,1.424,4.747,1.424h21.072c1.461,0,2.191,0.773,2.191,2.32v6.961
		c0,0.773-0.157,1.317-0.47,1.635C331.253,212.098,330.679,212.254,329.844,212.254z M303.868,182.301h14.188
		c0.766,0,1.147-0.386,1.147-1.16v-5.063c0-2.25-0.453-3.831-1.356-4.746c-0.903-0.913-2.469-1.371-4.693-1.371h-4.381
		c-2.228,0-3.792,0.458-4.695,1.371c-0.905,0.915-1.356,2.496-1.356,4.746v5.063C302.72,181.915,303.102,182.301,303.868,182.301z"
		/>
	<path fill="#FFFFFF" d="M360.931,209.828h-3.441c-5.356,0-9.407-1.477-12.153-4.43c-2.749-2.953-4.121-7.207-4.121-12.763v-16.979
		c0-5.555,1.495-9.809,4.486-12.762c2.989-2.955,7.231-4.432,12.727-4.432h24.1c1.527,0,2.295,0.738,2.295,2.217v51.995
		c0,5.484-1.514,9.704-4.538,12.656c-3.025,2.953-7.251,4.431-12.675,4.431h-20.03c-0.834,0-1.408-0.158-1.721-0.476
		c-0.313-0.315-0.471-0.861-0.471-1.636v-7.275c0-1.477,0.73-2.216,2.19-2.216h17.84c2.225,0,3.808-0.474,4.746-1.423
		s1.408-2.516,1.408-4.694v-8.017h-0.417c-0.768,1.898-2.123,3.342-4.068,4.324C365.138,209.338,363.086,209.828,360.931,209.828z
		 M371.571,190.211v-18.984c0-0.772-0.417-1.16-1.252-1.16h-9.807c-2.227,0-3.792,0.476-4.693,1.425
		c-0.905,0.948-1.356,2.549-1.356,4.799v15.715c0,2.252,0.451,3.833,1.356,4.747c0.901,0.914,2.468,1.37,4.693,1.37h3.859
		C369.172,198.121,371.571,195.484,371.571,190.211z"/>
	<path fill="#FFFFFF" d="M415.49,212.254h-3.442c-5.355,0-9.406-1.477-12.153-4.43s-4.119-7.206-4.119-12.762V160.68
		c0-1.478,0.729-2.216,2.189-2.216h8.867c1.461,0,2.19,0.738,2.19,2.216v33.75c0,2.252,0.47,3.851,1.407,4.799
		c0.939,0.949,2.486,1.426,4.644,1.426h3.859c4.8,0,7.198-2.674,7.198-8.018V160.68c0-1.478,0.729-2.216,2.19-2.216h8.763
		c1.529,0,2.295,0.738,2.295,2.216v49.359c0,1.477-0.766,2.215-2.295,2.215h-8.763c-1.461,0-2.19-0.738-2.19-2.215v-3.48h-0.418
		c-0.766,1.899-2.122,3.323-4.068,4.271C419.698,211.78,417.646,212.254,415.49,212.254z"/>
	<path fill="#FFFFFF" d="M461.913,212.254h-8.867c-1.461,0-2.19-0.738-2.19-2.215V160.68c0-1.478,0.729-2.216,2.19-2.216h8.867
		c1.46,0,2.189,0.738,2.189,2.216v3.586h0.419c0.764-1.898,2.119-3.339,4.067-4.324c1.946-0.983,3.998-1.478,6.154-1.478h3.756
		c1.391,0,2.087,0.738,2.087,2.216v7.276c0,0.845-0.157,1.425-0.47,1.741c-0.313,0.316-0.854,0.438-1.617,0.369h-7.198
		c-4.799,0-7.198,2.742-7.198,8.227v31.746C464.104,211.516,463.373,212.254,461.913,212.254z"/>
	<path fill="#FFFFFF" d="M512.718,212.254h-9.285c-5.494,0-9.737-1.477-12.727-4.43c-2.991-2.953-4.486-7.206-4.486-12.762v-19.406
		c0-5.555,1.495-9.809,4.486-12.762c2.989-2.955,7.232-4.432,12.727-4.432h9.285c5.424,0,9.648,1.495,12.674,4.483
		c3.025,2.989,4.539,7.224,4.539,12.709v19.405c0,5.484-1.514,9.723-4.539,12.709C522.367,210.761,518.142,212.254,512.718,212.254z
		 M505.416,200.758h5.32c2.225,0,3.807-0.456,4.746-1.371c0.938-0.912,1.407-2.494,1.407-4.746v-18.563
		c0-2.25-0.469-3.831-1.407-4.746c-0.939-0.913-2.521-1.371-4.746-1.371h-5.32c-2.227,0-3.792,0.458-4.695,1.371
		c-0.904,0.915-1.355,2.496-1.355,4.746v18.563c0,2.252,0.451,3.834,1.355,4.746C501.623,200.302,503.189,200.758,505.416,200.758z"
		/>
	<path fill="#FFFFFF" d="M582.82,212.254h-4.277c-5.357,0-9.408-1.477-12.154-4.43c-2.748-2.953-4.121-7.206-4.121-12.762v-19.406
		c0-5.555,1.373-9.809,4.121-12.762c2.746-2.955,6.797-4.432,12.154-4.432h4.277c2.153,0,4.207,0.475,6.153,1.424
		c1.947,0.95,3.304,2.374,4.068,4.272h0.418v-23.836c0-1.478,0.73-2.216,2.189-2.216h8.868c1.459,0,2.189,0.738,2.189,2.216v69.715
		c0,1.478-0.729,2.215-2.189,2.215h-8.868c-1.459,0-2.189-0.737-2.189-2.215v-3.479h-0.418c-0.766,1.898-2.121,3.322-4.068,4.271
		C587.027,211.78,584.974,212.254,582.82,212.254z M593.46,192.637v-14.555c0-5.343-2.4-8.016-7.199-8.016h-4.692
		c-2.228,0-3.791,0.475-4.695,1.424s-1.355,2.549-1.355,4.799v18.141c0,2.252,0.451,3.851,1.355,4.799
		c0.904,0.949,2.469,1.426,4.695,1.426h4.692C591.06,200.654,593.46,197.98,593.46,192.637z"/>
	<path fill="#FFFFFF" d="M657.408,212.254h-23.058c-5.493,0-9.735-1.477-12.727-4.43s-4.486-7.206-4.486-12.762v-19.406
		c0-5.555,1.496-9.809,4.486-12.762c2.99-2.955,7.232-4.432,12.727-4.432h8.242c5.492,0,9.736,1.477,12.728,4.432
		c2.989,2.953,4.485,7.207,4.485,12.762v13.395c0,1.477-0.729,2.215-2.19,2.215h-26.185c-0.836,0-1.252,0.387-1.252,1.16v2.32
		c0,2.181,0.47,3.744,1.408,4.693c0.939,0.949,2.521,1.424,4.746,1.424h21.074c1.459,0,2.188,0.773,2.188,2.32v6.961
		c0,0.773-0.155,1.317-0.469,1.635C658.816,212.098,658.242,212.254,657.408,212.254z M631.431,182.301h14.188
		c0.766,0,1.146-0.386,1.146-1.16v-5.063c0-2.25-0.45-3.831-1.354-4.746c-0.904-0.913-2.469-1.371-4.693-1.371h-4.383
		c-2.227,0-3.791,0.458-4.693,1.371c-0.905,0.915-1.356,2.496-1.356,4.746v5.063C630.283,181.915,630.664,182.301,631.431,182.301z"
		/>
	<path fill="#FFFFFF" d="M711.339,212.254h-2.504c-5.496,0-9.738-1.477-12.729-4.43c-2.99-2.953-4.483-7.206-4.483-12.762v-19.406
		c0-5.555,1.494-9.809,4.483-12.762c2.99-2.955,7.232-4.432,12.729-4.432h24.098c1.529,0,2.295,0.738,2.295,2.217v49.358
		c0,1.478-0.766,2.215-2.295,2.215h-8.764c-1.459,0-2.188-0.737-2.188-2.215v-3.479h-0.419c-0.766,1.898-2.122,3.322-4.067,4.271
		C715.544,211.78,713.494,212.254,711.339,212.254z M721.98,192.637v-21.41c0-0.772-0.419-1.16-1.253-1.16h-9.807
		c-2.227,0-3.791,0.476-4.695,1.425c-0.903,0.948-1.354,2.549-1.354,4.799v18.142c0,2.252,0.451,3.85,1.354,4.799
		c0.904,0.948,2.47,1.424,4.695,1.424h3.859C719.58,200.654,721.98,197.98,721.98,192.637z"/>
	<path fill="#FFFFFF" d="M765.898,212.254h-3.443c-5.355,0-9.406-1.477-12.152-4.43c-2.748-2.953-4.121-7.206-4.121-12.762V160.68
		c0-1.478,0.73-2.216,2.191-2.216h8.867c1.461,0,2.188,0.738,2.188,2.216v33.75c0,2.252,0.472,3.851,1.408,4.799
		c0.939,0.949,2.486,1.426,4.644,1.426h3.86c4.8,0,7.197-2.674,7.197-8.018V160.68c0-1.478,0.73-2.216,2.191-2.216h8.762
		c1.529,0,2.297,0.738,2.297,2.216v49.359c0,1.477-0.768,2.215-2.297,2.215h-8.762c-1.461,0-2.191-0.738-2.191-2.215v-3.48h-0.418
		c-0.766,1.899-2.121,3.323-4.066,4.271C770.105,211.78,768.052,212.254,765.898,212.254z"/>
	<path fill="#FFFFFF" d="M802.41,170.066h-4.172c-0.836,0-1.41-0.141-1.724-0.422c-0.313-0.28-0.469-0.844-0.469-1.688v-7.275
		c0-1.479,0.73-2.217,2.191-2.217h4.172c0.764,0,1.146-0.385,1.146-1.158v-10.021c0-1.478,0.767-2.216,2.295-2.216h8.765
		c1.461,0,2.19,0.738,2.19,2.216v10.021c0,0.773,0.416,1.158,1.252,1.158h8.138c1.461,0,2.19,0.738,2.19,2.217v7.275
		c0,0.775-0.156,1.318-0.469,1.636c-0.314,0.315-0.889,0.476-1.723,0.476h-8.138c-0.836,0-1.252,0.387-1.252,1.16v23.31
		c0,2.18,0.484,3.743,1.461,4.692c0.974,0.949,2.572,1.425,4.799,1.425h4.173c1.461,0,2.19,0.737,2.19,2.214v7.277
		c0,0.773-0.158,1.317-0.471,1.635c-0.313,0.316-0.888,0.475-1.722,0.475h-6.362c-5.494,0-9.754-1.477-12.779-4.43
		c-3.024-2.953-4.539-7.171-4.539-12.656v-23.941C803.556,170.453,803.173,170.066,802.41,170.066z"/>
	<path fill="#FFFFFF" d="M863.542,212.254h-9.285c-5.494,0-9.735-1.477-12.727-4.43s-4.486-7.206-4.486-12.762v-19.406
		c0-5.555,1.496-9.809,4.486-12.762c2.989-2.955,7.231-4.432,12.727-4.432h9.285c5.426,0,9.65,1.495,12.676,4.483
		c3.025,2.989,4.537,7.224,4.537,12.709v19.405c0,5.484-1.512,9.723-4.537,12.709C873.193,210.761,868.968,212.254,863.542,212.254z
		 M856.24,200.758h5.319c2.228,0,3.81-0.456,4.746-1.371c0.939-0.912,1.408-2.494,1.408-4.746v-18.563
		c0-2.25-0.469-3.831-1.408-4.746c-0.938-0.913-2.52-1.371-4.746-1.371h-5.319c-2.228,0-3.791,0.458-4.693,1.371
		c-0.906,0.915-1.356,2.496-1.356,4.746v18.563c0,2.252,0.45,3.834,1.356,4.746C852.449,200.302,854.013,200.758,856.24,200.758z"/>
</g>
<circle fill="#FFFFFF" cx="898.599" cy="201.74" r="9.857"/>
<g>
	<path fill="#FFFFFF" d="M931.354,211.598h-5.496c-0.904,0-1.357-0.453-1.357-1.358v-30.261c0-0.905,0.453-1.357,1.357-1.357h5.496
		c0.903,0,1.358,0.452,1.358,1.357v2.133h0.258c0.519-1.034,1.39-1.875,2.619-2.521c1.229-0.647,2.64-0.97,4.234-0.97h1.811
		c3.75,0,6.443,1.379,8.082,4.138c1.465-2.759,3.988-4.138,7.566-4.138h1.875c3.317,0,5.83,0.904,7.533,2.716
		c1.7,1.812,2.555,4.419,2.555,7.823v21.079c0,0.905-0.453,1.358-1.359,1.358h-5.496c-0.903,0-1.356-0.453-1.356-1.358v-20.69
		c0-1.38-0.281-2.359-0.842-2.943c-0.56-0.58-1.529-0.871-2.908-0.871h-1.617c-2.975,0-4.461,1.66-4.461,4.979v19.527
		c0,0.906-0.475,1.357-1.424,1.357h-5.431c-0.905,0-1.358-0.451-1.358-1.357v-20.69c0-1.38-0.291-2.36-0.873-2.942
		s-1.563-0.873-2.941-0.873h-2.004c-2.975,0-4.461,1.64-4.461,4.914v19.593C932.712,211.145,932.257,211.598,931.354,211.598z"/>
	<path fill="#FFFFFF" d="M981.4,211.598h-6.531c-1.121,0-1.422-0.453-0.904-1.358l8.148-15.453l-8.148-14.808
		c-0.432-0.905-0.174-1.357,0.775-1.357h6.596c1.035,0,1.703,0.452,2.004,1.357l4.074,9.828h0.26l3.556-9.828
		c0.303-0.905,0.971-1.357,2.004-1.357h6.467c1.121,0,1.401,0.452,0.842,1.357l-7.76,14.808l8.342,15.453
		c0.215,0.388,0.248,0.712,0.096,0.971c-0.149,0.259-0.44,0.388-0.871,0.388h-6.659c-0.906,0-1.554-0.451-1.941-1.357l-4.072-9.893
		h-0.26l-4.074,9.893C983.039,211.145,982.39,211.598,981.4,211.598z"/>
</g>
<circle fill="#F5EA32" cx="116.124" cy="118.084" r="104.932"/>
<g>
	<g>
		<path fill="#2B66AA" d="M200.348,196.365l-22.007-28.229c7.15-2.137,13.279-6.688,17.366-12.908
			c5.199-9.008,2.878-19.873,0.556-30.459c-1.393-5.385-2.229-10.957-2.414-16.529c0.279-5.571,1.115-11.143,2.414-16.622
			c2.229-10.586,4.643-21.544-0.556-30.458c-5.388-9.286-16.159-12.722-26.653-16.065c-5.2-1.393-10.213-3.436-15.042-5.85
			c-4.365-2.786-8.358-6.129-12.072-9.75c-7.615-7.244-16.437-15.416-27.58-15.416c-11.145,0-20.059,8.171-27.765,15.416
			c-3.622,3.714-7.707,6.964-12.071,9.75c-4.829,2.507-9.845,4.457-15.045,5.85c-10.399,3.343-21.172,6.779-26.558,16.065
			c-5.2,9.007-2.878,19.872-0.556,30.458c1.392,5.385,2.227,10.957,2.415,16.622c-0.279,5.572-1.115,11.144-2.415,16.622
			c-2.23,10.587-4.644,21.543,0.556,30.46c4.085,6.221,10.308,10.771,17.458,12.906l-22.007,28.322
			c-1.207,1.579-0.929,3.808,0.649,5.109c0.742,0.556,1.671,0.834,2.693,0.74l25.815-3.249l6.408,22.38
			c0.371,1.3,1.485,2.321,2.785,2.6c0.187,0,0.465,0.093,0.651,0.093c1.115,0,2.135-0.558,2.878-1.393l23.123-29.716
			c5.665,5.571,13.185,8.914,21.078,9.379c7.894-0.557,15.417-3.9,21.081-9.379l23.121,29.716c0.651,0.929,1.767,1.393,2.879,1.393
			c0.186,0,0.465,0,0.65-0.093c1.3-0.278,2.414-1.206,2.786-2.6l6.408-22.38l25.814,3.249c1.95,0.28,3.809-1.112,3.993-3.155
			C201.183,198.13,200.905,197.109,200.348,196.365z M68.859,212.43l-5.294-18.479c-0.465-1.671-2.137-2.787-3.9-2.601
			l-20.245,2.508l18.109-23.308l2.042,0.649c5.201,1.393,10.215,3.437,15.044,5.85c4.365,2.787,8.358,6.13,12.072,9.751l1.207,1.114
			L68.859,212.43z M114.36,194.972c-8.358,0-15.416-6.499-22.844-13.371c-4.085-4.086-8.542-7.613-13.371-10.771
			c-5.2-2.786-10.772-4.923-16.437-6.499c-9.565-3.066-18.573-5.945-22.564-12.724c-3.809-6.5-1.858-15.693,0.276-25.351
			c1.487-5.943,2.322-11.979,2.602-18.108c-0.28-6.128-1.115-12.164-2.602-18.107c-2.042-9.657-3.992-18.758-0.276-25.351
			c3.992-6.872,12.999-9.75,22.564-12.722c5.665-1.579,11.236-3.808,16.437-6.5c4.829-3.065,9.286-6.686,13.371-10.772
			c7.429-6.872,14.486-13.372,22.844-13.372c8.357,0,15.415,6.5,22.844,13.372c4.085,4.086,8.542,7.615,13.371,10.772
			c5.2,2.786,10.772,4.921,16.437,6.5c9.565,3.064,18.572,5.943,22.565,12.722c3.808,6.5,1.857,15.694-0.278,25.351
			c-1.487,5.943-2.322,11.979-2.602,18.107c0.279,6.129,1.115,12.165,2.602,18.108c2.043,9.657,3.994,18.757,0.278,25.351
			c-3.993,6.871-13,9.751-22.565,12.724c-5.665,1.576-11.236,3.807-16.437,6.499c-4.829,3.064-9.286,6.686-13.371,10.771
			C129.681,188.473,122.624,194.972,114.36,194.972z M169.054,191.444c-1.763-0.187-3.434,0.836-3.899,2.601l-5.294,18.479
			l-19.035-24.422l1.207-1.115c3.622-3.714,7.707-6.964,12.071-9.75c4.829-2.508,9.843-4.457,15.044-5.85l2.042-0.649l18.109,23.308
			L169.054,191.444z M179.362,108.147c0-35.937-29.159-65.094-65.095-65.094c-35.938,0-65.002,29.157-65.002,65.094
			c0,35.938,29.158,65.097,65.095,65.097C150.296,173.244,179.362,144.177,179.362,108.147z M114.36,166.093
			c-31.944,0-57.852-25.908-57.852-57.852s25.908-57.945,57.852-57.945c31.943,0,57.852,25.908,57.852,57.852
			C172.119,140.093,146.209,166,114.36,166.093z M156.054,93.105c-1.393-1.858-3.529-2.972-5.851-2.972h-22.101l-6.872-21.079
			c-1.207-3.807-5.292-5.85-9.099-4.643c-2.229,0.743-3.9,2.415-4.643,4.643l-6.871,21.079H78.422c-3.993,0-7.243,3.25-7.243,7.243
			c0,2.322,1.114,4.457,2.972,5.85l17.922,13l-6.873,21.08c-1.207,3.807,0.838,7.893,4.645,9.099c2.229,0.744,4.643,0.373,6.5-1.021
			l17.923-13.001l17.922,13.001c2.508,1.856,5.942,1.856,8.543,0c2.599-1.856,3.622-5.106,2.599-8.078l-6.779-21.08l17.923-13
			C157.633,100.812,158.376,96.262,156.054,93.105z M130.145,111.862c-1.299,0.93-1.763,2.6-1.299,4.086l7.614,23.587l-20.058-14.58
			c-1.299-0.928-2.97-0.928-4.271,0l-20.059,14.58l7.615-23.587c0.464-1.486,0-3.157-1.301-4.086L78.422,97.283h24.793
			c1.579,0,2.974-1.021,3.437-2.507l7.615-23.586l7.615,23.586c0.463,1.486,1.856,2.507,3.434,2.507h24.795L130.145,111.862z"/>
	</g>
</g>
</svg>
